(module 878325623 (layer F.Cu) (tedit 5E401929)
  (fp_text reference J1 (at -8.101 4.986) (layer F.SilkS)
    (effects (font (size 1 1) (thickness 0.15)))
  )
  (fp_text value 87832-5623 (at -5.334 -5.588) (layer F.Fab)
    (effects (font (size 1 1) (thickness 0.15)))
  )
  (fp_line (start -6.825 -0.975) (end 6.75 -0.95) (layer F.SilkS) (width 0.12))
  (fp_line (start 6.75 5.35) (end -6.45 5.35) (layer F.SilkS) (width 0.12))
  (fp_line (start -6.825 -0.975) (end -6.825 5.35) (layer F.SilkS) (width 0.12))
  (fp_line (start -6.825 5.35) (end 6.75 5.35) (layer F.SilkS) (width 0.12))
  (fp_line (start 6.75 5.35) (end 6.75 -0.95) (layer F.SilkS) (width 0.12))
  (pad 1 smd rect (at -6 0) (size 1 2.75) (layers F.Cu F.Paste F.Mask))
  (pad 2 smd rect (at -4 0) (size 1 2.75) (layers F.Cu F.Paste F.Mask))
  (pad 3 smd rect (at -2 0) (size 1 2.75) (layers F.Cu F.Paste F.Mask))
  (pad 4 smd rect (at 0 0) (size 1 2.75) (layers F.Cu F.Paste F.Mask))
  (pad 5 smd rect (at 2 0) (size 1 2.75) (layers F.Cu F.Paste F.Mask))
  (pad 6 smd rect (at 4 0) (size 1 2.75) (layers F.Cu F.Paste F.Mask))
  (pad 7 smd rect (at 6 0) (size 1 2.75) (layers F.Cu F.Paste F.Mask))
  (pad 8 smd rect (at -6 4.3) (size 1 2.75) (layers F.Cu F.Paste F.Mask))
  (pad 9 smd rect (at -4 4.3) (size 1 2.75) (layers F.Cu F.Paste F.Mask))
  (pad 10 smd rect (at -2 4.3) (size 1 2.75) (layers F.Cu F.Paste F.Mask))
  (pad 11 smd rect (at 0 4.3) (size 1 2.75) (layers F.Cu F.Paste F.Mask))
  (pad 12 smd rect (at 2 4.3) (size 1 2.75) (layers F.Cu F.Paste F.Mask))
  (pad 13 smd rect (at 4 4.3) (size 1 2.75) (layers F.Cu F.Paste F.Mask))
  (pad 14 smd rect (at 6 4.3) (size 1 2.75) (layers F.Cu F.Paste F.Mask))
)
