EESchema Schematic File Version 4
EELAYER 30 0
EELAYER END
$Descr A4 11693 8268
encoding utf-8
Sheet 2 2
Title ""
Date ""
Rev ""
Comp ""
Comment1 ""
Comment2 ""
Comment3 ""
Comment4 ""
$EndDescr
$Comp
L gbtx:TPS76201 T?
U 1 1 5E7F83BE
P 2800 2200
F 0 "T?" H 2825 2565 50  0000 C CNN
F 1 "TPS76201" H 2825 2474 50  0000 C CNN
F 2 "" H 3050 2200 50  0001 C CNN
F 3 "" H 3050 2200 50  0001 C CNN
	1    2800 2200
	1    0    0    -1  
$EndComp
$Comp
L Device:R_Small R?
U 1 1 5E7FB223
P 3300 2300
F 0 "R?" H 3359 2346 50  0000 L CNN
F 1 "246k" H 3359 2255 50  0000 L CNN
F 2 "" H 3300 2300 50  0001 C CNN
F 3 "~" H 3300 2300 50  0001 C CNN
	1    3300 2300
	1    0    0    -1  
$EndComp
$Comp
L Device:C_Small C?
U 1 1 5E7FB4E2
P 3750 2750
F 0 "C?" H 3842 2796 50  0000 L CNN
F 1 "4u7" H 3842 2705 50  0000 L CNN
F 2 "" H 3750 2750 50  0001 C CNN
F 3 "~" H 3750 2750 50  0001 C CNN
	1    3750 2750
	1    0    0    -1  
$EndComp
$Comp
L Device:C_Small C?
U 1 1 5E7FBEA2
P 2200 2750
F 0 "C?" H 2292 2796 50  0000 L CNN
F 1 "1u" H 2292 2705 50  0000 L CNN
F 2 "" H 2200 2750 50  0001 C CNN
F 3 "~" H 2200 2750 50  0001 C CNN
	1    2200 2750
	1    0    0    -1  
$EndComp
$Comp
L Device:R_Small R?
U 1 1 5E7FEFF7
P 3300 2750
F 0 "R?" H 3359 2796 50  0000 L CNN
F 1 "66k5" H 3359 2705 50  0000 L CNN
F 2 "" H 3300 2750 50  0001 C CNN
F 3 "~" H 3300 2750 50  0001 C CNN
	1    3300 2750
	1    0    0    -1  
$EndComp
Wire Wire Line
	2200 2650 2200 2100
Wire Wire Line
	2200 2100 2500 2100
Wire Wire Line
	3300 2100 3300 2200
Wire Wire Line
	3750 2650 3750 2100
Wire Wire Line
	3750 2100 3300 2100
Wire Wire Line
	3750 2850 3300 2850
Wire Wire Line
	3300 2850 2400 2850
Connection ~ 3300 2850
Text HLabel 2000 2850 0    50   Input ~ 0
GND
Wire Wire Line
	2000 2100 2200 2100
Connection ~ 2200 2100
Text HLabel 2000 2100 0    50   Input ~ 0
9V
Wire Wire Line
	2000 2850 2200 2850
Connection ~ 2200 2850
Wire Wire Line
	2500 2350 2400 2350
Wire Wire Line
	2400 2350 2400 2500
Connection ~ 2400 2850
Wire Wire Line
	2500 2500 2400 2500
Connection ~ 2400 2500
Wire Wire Line
	2400 2500 2400 2850
Wire Wire Line
	3300 2400 3300 2500
Wire Wire Line
	3150 2500 3300 2500
Wire Wire Line
	2250 2850 2400 2850
Wire Wire Line
	2200 2850 2400 2850
Connection ~ 3300 2500
Wire Wire Line
	3300 2500 3300 2650
Wire Wire Line
	3300 2100 3150 2100
Connection ~ 3300 2100
Text HLabel 4000 2100 2    50   Input ~ 0
3V3
Wire Wire Line
	4000 2100 3750 2100
Connection ~ 3750 2100
$Comp
L gbtx:TPS76201 T?
U 1 1 5E80A05A
P 2800 3750
F 0 "T?" H 2825 4115 50  0000 C CNN
F 1 "TPS76201" H 2825 4024 50  0000 C CNN
F 2 "" H 3050 3750 50  0001 C CNN
F 3 "" H 3050 3750 50  0001 C CNN
	1    2800 3750
	1    0    0    -1  
$EndComp
$Comp
L Device:R_Small R?
U 1 1 5E80A064
P 3300 3850
F 0 "R?" H 3359 3896 50  0000 L CNN
F 1 "113K" H 3359 3805 50  0000 L CNN
F 2 "" H 3300 3850 50  0001 C CNN
F 3 "~" H 3300 3850 50  0001 C CNN
	1    3300 3850
	1    0    0    -1  
$EndComp
$Comp
L Device:C_Small C?
U 1 1 5E80A06E
P 3750 4300
F 0 "C?" H 3842 4346 50  0000 L CNN
F 1 "4u7" H 3842 4255 50  0000 L CNN
F 2 "" H 3750 4300 50  0001 C CNN
F 3 "~" H 3750 4300 50  0001 C CNN
	1    3750 4300
	1    0    0    -1  
$EndComp
$Comp
L Device:C_Small C?
U 1 1 5E80A078
P 2200 4300
F 0 "C?" H 2292 4346 50  0000 L CNN
F 1 "1u" H 2292 4255 50  0000 L CNN
F 2 "" H 2200 4300 50  0001 C CNN
F 3 "~" H 2200 4300 50  0001 C CNN
	1    2200 4300
	1    0    0    -1  
$EndComp
$Comp
L Device:R_Small R?
U 1 1 5E80A082
P 3300 4300
F 0 "R?" H 3359 4346 50  0000 L CNN
F 1 "66k5" H 3359 4255 50  0000 L CNN
F 2 "" H 3300 4300 50  0001 C CNN
F 3 "~" H 3300 4300 50  0001 C CNN
	1    3300 4300
	1    0    0    -1  
$EndComp
Wire Wire Line
	2200 4200 2200 3650
Wire Wire Line
	2200 3650 2500 3650
Wire Wire Line
	3300 3650 3300 3750
Wire Wire Line
	3750 4200 3750 3650
Wire Wire Line
	3750 3650 3300 3650
Wire Wire Line
	3750 4400 3300 4400
Wire Wire Line
	3300 4400 2400 4400
Connection ~ 3300 4400
Text HLabel 2000 4400 0    50   Input ~ 0
GND
Wire Wire Line
	2000 3650 2200 3650
Connection ~ 2200 3650
Text HLabel 2000 3650 0    50   Input ~ 0
9V
Wire Wire Line
	2000 4400 2200 4400
Connection ~ 2200 4400
Wire Wire Line
	2500 3900 2400 3900
Wire Wire Line
	2400 3900 2400 4050
Connection ~ 2400 4400
Wire Wire Line
	2500 4050 2400 4050
Connection ~ 2400 4050
Wire Wire Line
	2400 4050 2400 4400
Wire Wire Line
	3300 3950 3300 4050
Wire Wire Line
	3150 4050 3300 4050
Connection ~ 3300 4050
Wire Wire Line
	3300 4050 3300 4200
Wire Wire Line
	3300 3650 3150 3650
Connection ~ 3300 3650
Text HLabel 4000 3650 2    50   Input ~ 0
1V8
Wire Wire Line
	4000 3650 3750 3650
Connection ~ 3750 3650
$Comp
L gbtx:TPS76201 T?
U 1 1 5E80E02E
P 7200 2200
F 0 "T?" H 7225 2565 50  0000 C CNN
F 1 "TPS76201" H 7225 2474 50  0000 C CNN
F 2 "" H 7450 2200 50  0001 C CNN
F 3 "" H 7450 2200 50  0001 C CNN
	1    7200 2200
	1    0    0    -1  
$EndComp
$Comp
L Device:R_Small R?
U 1 1 5E80E038
P 7700 2300
F 0 "R?" H 7759 2346 50  0000 L CNN
F 1 "182K" H 7759 2255 50  0000 L CNN
F 2 "" H 7700 2300 50  0001 C CNN
F 3 "~" H 7700 2300 50  0001 C CNN
	1    7700 2300
	1    0    0    -1  
$EndComp
$Comp
L Device:C_Small C?
U 1 1 5E80E042
P 8150 2750
F 0 "C?" H 8242 2796 50  0000 L CNN
F 1 "4u7" H 8242 2705 50  0000 L CNN
F 2 "" H 8150 2750 50  0001 C CNN
F 3 "~" H 8150 2750 50  0001 C CNN
	1    8150 2750
	1    0    0    -1  
$EndComp
$Comp
L Device:C_Small C?
U 1 1 5E80E04C
P 6600 2750
F 0 "C?" H 6692 2796 50  0000 L CNN
F 1 "1u" H 6692 2705 50  0000 L CNN
F 2 "" H 6600 2750 50  0001 C CNN
F 3 "~" H 6600 2750 50  0001 C CNN
	1    6600 2750
	1    0    0    -1  
$EndComp
$Comp
L Device:R_Small R?
U 1 1 5E80E056
P 7700 2750
F 0 "R?" H 7759 2796 50  0000 L CNN
F 1 "66k5" H 7759 2705 50  0000 L CNN
F 2 "" H 7700 2750 50  0001 C CNN
F 3 "~" H 7700 2750 50  0001 C CNN
	1    7700 2750
	1    0    0    -1  
$EndComp
Wire Wire Line
	6600 2650 6600 2100
Wire Wire Line
	6600 2100 6900 2100
Wire Wire Line
	7700 2100 7700 2200
Wire Wire Line
	8150 2650 8150 2100
Wire Wire Line
	8150 2100 7700 2100
Wire Wire Line
	8150 2850 7700 2850
Wire Wire Line
	7700 2850 6800 2850
Connection ~ 7700 2850
Text HLabel 6400 2850 0    50   Input ~ 0
GND
Wire Wire Line
	6400 2100 6600 2100
Connection ~ 6600 2100
Text HLabel 6400 2100 0    50   Input ~ 0
9V
Wire Wire Line
	6400 2850 6600 2850
Connection ~ 6600 2850
Wire Wire Line
	6900 2350 6800 2350
Wire Wire Line
	6800 2350 6800 2500
Connection ~ 6800 2850
Wire Wire Line
	6900 2500 6800 2500
Connection ~ 6800 2500
Wire Wire Line
	6800 2500 6800 2850
Wire Wire Line
	7700 2400 7700 2500
Wire Wire Line
	7550 2500 7700 2500
Connection ~ 7700 2500
Wire Wire Line
	7700 2500 7700 2650
Wire Wire Line
	7700 2100 7550 2100
Connection ~ 7700 2100
Text HLabel 8400 2100 2    50   Input ~ 0
2V5
Wire Wire Line
	8400 2100 8150 2100
Connection ~ 8150 2100
$Comp
L gbtx:TPS76201 T?
U 1 1 5E80E07F
P 7200 3750
F 0 "T?" H 7225 4115 50  0000 C CNN
F 1 "TPS76201" H 7225 4024 50  0000 C CNN
F 2 "" H 7450 3750 50  0001 C CNN
F 3 "" H 7450 3750 50  0001 C CNN
	1    7200 3750
	1    0    0    -1  
$EndComp
$Comp
L Device:R_Small R?
U 1 1 5E80E089
P 7700 3850
F 0 "R?" H 7759 3896 50  0000 L CNN
F 1 "83k5" H 7759 3805 50  0000 L CNN
F 2 "" H 7700 3850 50  0001 C CNN
F 3 "~" H 7700 3850 50  0001 C CNN
	1    7700 3850
	1    0    0    -1  
$EndComp
$Comp
L Device:C_Small C?
U 1 1 5E80E093
P 8150 4300
F 0 "C?" H 8242 4346 50  0000 L CNN
F 1 "4u7" H 8242 4255 50  0000 L CNN
F 2 "" H 8150 4300 50  0001 C CNN
F 3 "~" H 8150 4300 50  0001 C CNN
	1    8150 4300
	1    0    0    -1  
$EndComp
$Comp
L Device:C_Small C?
U 1 1 5E80E09D
P 6600 4300
F 0 "C?" H 6692 4346 50  0000 L CNN
F 1 "1u" H 6692 4255 50  0000 L CNN
F 2 "" H 6600 4300 50  0001 C CNN
F 3 "~" H 6600 4300 50  0001 C CNN
	1    6600 4300
	1    0    0    -1  
$EndComp
$Comp
L Device:R_Small R?
U 1 1 5E80E0A7
P 7700 4300
F 0 "R?" H 7759 4346 50  0000 L CNN
F 1 "66k5" H 7759 4255 50  0000 L CNN
F 2 "" H 7700 4300 50  0001 C CNN
F 3 "~" H 7700 4300 50  0001 C CNN
	1    7700 4300
	1    0    0    -1  
$EndComp
Wire Wire Line
	6600 4200 6600 3650
Wire Wire Line
	6600 3650 6900 3650
Wire Wire Line
	7700 3650 7700 3750
Wire Wire Line
	8150 4200 8150 3650
Wire Wire Line
	8150 3650 7700 3650
Wire Wire Line
	8150 4400 7700 4400
Wire Wire Line
	7700 4400 6800 4400
Connection ~ 7700 4400
Text HLabel 6400 4400 0    50   Input ~ 0
GND
Wire Wire Line
	6400 3650 6600 3650
Connection ~ 6600 3650
Text HLabel 6400 3650 0    50   Input ~ 0
9V
Wire Wire Line
	6400 4400 6600 4400
Connection ~ 6600 4400
Wire Wire Line
	6900 3900 6800 3900
Wire Wire Line
	6800 3900 6800 4050
Connection ~ 6800 4400
Wire Wire Line
	6900 4050 6800 4050
Connection ~ 6800 4050
Wire Wire Line
	6800 4050 6800 4400
Wire Wire Line
	7700 3950 7700 4050
Wire Wire Line
	7550 4050 7700 4050
Connection ~ 7700 4050
Wire Wire Line
	7700 4050 7700 4200
Wire Wire Line
	7700 3650 7550 3650
Connection ~ 7700 3650
Text HLabel 8400 3650 2    50   Input ~ 0
1V5
Wire Wire Line
	8400 3650 8150 3650
Connection ~ 8150 3650
Wire Wire Line
	2250 4400 2400 4400
Wire Wire Line
	6650 4400 6800 4400
Wire Wire Line
	2200 4400 2400 4400
Wire Wire Line
	6600 4400 6800 4400
$Comp
L Device:R_Small R?
U 1 1 5E813AC8
P 2650 5950
F 0 "R?" H 2709 5996 50  0000 L CNN
F 1 "1k5" H 2709 5905 50  0000 L CNN
F 2 "" H 2650 5950 50  0001 C CNN
F 3 "~" H 2650 5950 50  0001 C CNN
	1    2650 5950
	1    0    0    -1  
$EndComp
$Comp
L Device:LED_Small D?
U 1 1 5E81424F
P 2650 6300
F 0 "D?" V 2696 6232 50  0000 R CNN
F 1 "LED" V 2605 6232 50  0000 R CNN
F 2 "" V 2650 6300 50  0001 C CNN
F 3 "~" V 2650 6300 50  0001 C CNN
	1    2650 6300
	0    -1   -1   0   
$EndComp
Wire Wire Line
	2650 6050 2650 6200
Wire Wire Line
	6650 2850 6800 2850
Wire Wire Line
	6600 2850 6800 2850
$Comp
L Device:R_Small R?
U 1 1 5E816DBA
P 3050 5950
F 0 "R?" H 3109 5996 50  0000 L CNN
F 1 "1k5" H 3109 5905 50  0000 L CNN
F 2 "" H 3050 5950 50  0001 C CNN
F 3 "~" H 3050 5950 50  0001 C CNN
	1    3050 5950
	1    0    0    -1  
$EndComp
$Comp
L Device:LED_Small D?
U 1 1 5E816DC4
P 3050 6300
F 0 "D?" V 3096 6232 50  0000 R CNN
F 1 "LED" V 3005 6232 50  0000 R CNN
F 2 "" V 3050 6300 50  0001 C CNN
F 3 "~" V 3050 6300 50  0001 C CNN
	1    3050 6300
	0    -1   -1   0   
$EndComp
Wire Wire Line
	3050 6050 3050 6200
$Comp
L Device:R_Small R?
U 1 1 5E819418
P 3450 5950
F 0 "R?" H 3509 5996 50  0000 L CNN
F 1 "1k5" H 3509 5905 50  0000 L CNN
F 2 "" H 3450 5950 50  0001 C CNN
F 3 "~" H 3450 5950 50  0001 C CNN
	1    3450 5950
	1    0    0    -1  
$EndComp
$Comp
L Device:LED_Small D?
U 1 1 5E819422
P 3450 6300
F 0 "D?" V 3496 6232 50  0000 R CNN
F 1 "LED" V 3405 6232 50  0000 R CNN
F 2 "" V 3450 6300 50  0001 C CNN
F 3 "~" V 3450 6300 50  0001 C CNN
	1    3450 6300
	0    -1   -1   0   
$EndComp
Wire Wire Line
	3450 6050 3450 6200
$Comp
L Device:R_Small R?
U 1 1 5E81942D
P 3850 5950
F 0 "R?" H 3909 5996 50  0000 L CNN
F 1 "1k5" H 3909 5905 50  0000 L CNN
F 2 "" H 3850 5950 50  0001 C CNN
F 3 "~" H 3850 5950 50  0001 C CNN
	1    3850 5950
	1    0    0    -1  
$EndComp
$Comp
L Device:LED_Small D?
U 1 1 5E819437
P 3850 6300
F 0 "D?" V 3896 6232 50  0000 R CNN
F 1 "LED" V 3805 6232 50  0000 R CNN
F 2 "" V 3850 6300 50  0001 C CNN
F 3 "~" V 3850 6300 50  0001 C CNN
	1    3850 6300
	0    -1   -1   0   
$EndComp
Wire Wire Line
	3850 6050 3850 6200
Text HLabel 4250 6400 2    50   Input ~ 0
GND
Wire Wire Line
	4250 6400 3850 6400
Wire Wire Line
	3850 6400 3450 6400
Connection ~ 3850 6400
Wire Wire Line
	3450 6400 3050 6400
Connection ~ 3450 6400
Wire Wire Line
	3050 6400 2650 6400
Connection ~ 3050 6400
Text HLabel 3400 5700 0    50   Input ~ 0
1V8
Text HLabel 3800 5700 0    50   Input ~ 0
1V5
Text HLabel 3000 5700 0    50   Input ~ 0
2V5
Text HLabel 2600 5700 0    50   Input ~ 0
3V3
Wire Wire Line
	2600 5700 2650 5700
Wire Wire Line
	2650 5700 2650 5850
Wire Wire Line
	3000 5700 3050 5700
Wire Wire Line
	3050 5700 3050 5850
Wire Wire Line
	3400 5700 3450 5700
Wire Wire Line
	3450 5700 3450 5850
Wire Wire Line
	3800 5700 3850 5700
Wire Wire Line
	3850 5700 3850 5850
Text Notes 850  850  0    129  ~ 0
Power Regulators
$EndSCHEMATC
