(module PinSocket_2x07_P2.00mm_Vertical (layer F.Cu) (tedit 5A19A42F)
  (descr "Through hole straight socket strip, 2x07, 2.00mm pitch, double cols (from Kicad 4.0.7), script generated")
  (tags "Through hole socket strip THT 2x07 2.00mm double row")
  (fp_text reference J2 (at -1 -2.5 -180) (layer F.SilkS)
    (effects (font (size 1 1) (thickness 0.15)))
  )
  (fp_text value 87832-5623 (at -1 14.5 -180) (layer F.Fab)
    (effects (font (size 1 1) (thickness 0.15)))
  )
  (fp_text user %R (at -1 6 -270) (layer F.Fab)
    (effects (font (size 1 1) (thickness 0.15)))
  )
  (fp_line (start -3.5 13.5) (end -3.5 -1.5) (layer F.CrtYd) (width 0.05))
  (fp_line (start 1.5 13.5) (end -3.5 13.5) (layer F.CrtYd) (width 0.05))
  (fp_line (start 1.5 -1.5) (end 1.5 13.5) (layer F.CrtYd) (width 0.05))
  (fp_line (start -3.5 -1.5) (end 1.5 -1.5) (layer F.CrtYd) (width 0.05))
  (fp_line (start 0 -1.06) (end 1.06 -1.06) (layer F.SilkS) (width 0.12))
  (fp_line (start 1.06 -1.06) (end 1.06 0) (layer F.SilkS) (width 0.12))
  (fp_line (start -1 -1.06) (end -1 1) (layer F.SilkS) (width 0.12))
  (fp_line (start -1 1) (end 1.06 1) (layer F.SilkS) (width 0.12))
  (fp_line (start 1.06 1) (end 1.06 13.06) (layer F.SilkS) (width 0.12))
  (fp_line (start -3.06 13.06) (end 1.06 13.06) (layer F.SilkS) (width 0.12))
  (fp_line (start -3.06 -1.06) (end -3.06 13.06) (layer F.SilkS) (width 0.12))
  (fp_line (start -3.06 -1.06) (end -1 -1.06) (layer F.SilkS) (width 0.12))
  (fp_line (start -3 13) (end -3 -1) (layer F.Fab) (width 0.1))
  (fp_line (start 1 13) (end -3 13) (layer F.Fab) (width 0.1))
  (fp_line (start 1 0) (end 1 13) (layer F.Fab) (width 0.1))
  (fp_line (start 0 -1) (end 1 0) (layer F.Fab) (width 0.1))
  (fp_line (start -3 -1) (end 0 -1) (layer F.Fab) (width 0.1))
  (pad 14 thru_hole oval (at -2 12) (size 1.35 1.35) (drill 0.8) (layers *.Cu *.Mask))
  (pad 13 thru_hole oval (at 0 12) (size 1.35 1.35) (drill 0.8) (layers *.Cu *.Mask))
  (pad 12 thru_hole oval (at -2 10) (size 1.35 1.35) (drill 0.8) (layers *.Cu *.Mask))
  (pad 11 thru_hole oval (at 0 10) (size 1.35 1.35) (drill 0.8) (layers *.Cu *.Mask))
  (pad 10 thru_hole oval (at -2 8) (size 1.35 1.35) (drill 0.8) (layers *.Cu *.Mask))
  (pad 9 thru_hole oval (at 0 8) (size 1.35 1.35) (drill 0.8) (layers *.Cu *.Mask))
  (pad 8 thru_hole oval (at -2 6) (size 1.35 1.35) (drill 0.8) (layers *.Cu *.Mask))
  (pad 7 thru_hole oval (at 0 6) (size 1.35 1.35) (drill 0.8) (layers *.Cu *.Mask))
  (pad 6 thru_hole oval (at -2 4) (size 1.35 1.35) (drill 0.8) (layers *.Cu *.Mask))
  (pad 5 thru_hole oval (at 0 4) (size 1.35 1.35) (drill 0.8) (layers *.Cu *.Mask))
  (pad 4 thru_hole oval (at -2 2) (size 1.35 1.35) (drill 0.8) (layers *.Cu *.Mask))
  (pad 3 thru_hole oval (at 0 2) (size 1.35 1.35) (drill 0.8) (layers *.Cu *.Mask))
  (pad 2 thru_hole oval (at -2 0) (size 1.35 1.35) (drill 0.8) (layers *.Cu *.Mask))
  (pad 1 thru_hole rect (at 0 0) (size 1.35 1.35) (drill 0.8) (layers *.Cu *.Mask))
  (model ${KISYS3DMOD}/Connector_PinSocket_2.00mm.3dshapes/PinSocket_2x07_P2.00mm_Vertical.wrl
    (at (xyz 0 0 0))
    (scale (xyz 1 1 1))
    (rotate (xyz 0 0 0))
  )
)
