EESchema Schematic File Version 4
EELAYER 30 0
EELAYER END
$Descr A4 11693 8268
encoding utf-8
Sheet 2 3
Title "Proasic3 Mezannine Card "
Date "May 13 2020"
Rev ""
Comp "Stockholm University"
Comment1 "katherine.dunne@fysik.su.se"
Comment2 "K. Dunne"
Comment3 ""
Comment4 ""
$EndDescr
$Comp
L gbtx:TPS76201 T1
U 1 1 5E82D56D
P 2100 2650
F 0 "T1" H 2125 3015 50  0000 C CNN
F 1 "TPS76201" H 2125 2924 50  0000 C CNN
F 2 "gbtx-testboard:TPS76201" H 2350 2650 50  0001 C CNN
F 3 "" H 2350 2650 50  0001 C CNN
	1    2100 2650
	1    0    0    -1  
$EndComp
$Comp
L Device:C_Small C2
U 1 1 5E82DA41
P 1500 3050
F 0 "C2" H 1592 3096 50  0000 L CNN
F 1 "1u" H 1592 3005 50  0000 L CNN
F 2 "Capacitor_SMD:C_0603_1608Metric_Pad1.05x0.95mm_HandSolder" H 1500 3050 50  0001 C CNN
F 3 "~" H 1500 3050 50  0001 C CNN
	1    1500 3050
	1    0    0    -1  
$EndComp
$Comp
L Device:R_Small R16
U 1 1 5E82DAD2
P 2600 3150
F 0 "R16" H 2659 3196 50  0000 L CNN
F 1 "66k5" H 2659 3105 50  0000 L CNN
F 2 "Resistor_SMD:R_0603_1608Metric_Pad1.05x0.95mm_HandSolder" H 2600 3150 50  0001 C CNN
F 3 "~" H 2600 3150 50  0001 C CNN
	1    2600 3150
	1    0    0    -1  
$EndComp
$Comp
L Device:R_Small R15
U 1 1 5E82DD1C
P 2600 2750
F 0 "R15" H 2659 2796 50  0000 L CNN
F 1 "246k" H 2659 2705 50  0000 L CNN
F 2 "Resistor_SMD:R_0603_1608Metric_Pad1.05x0.95mm_HandSolder" H 2600 2750 50  0001 C CNN
F 3 "~" H 2600 2750 50  0001 C CNN
	1    2600 2750
	1    0    0    -1  
$EndComp
Text GLabel 1300 3300 0    50   Input ~ 0
GND
Wire Wire Line
	2600 2550 2600 2650
Wire Wire Line
	1300 3300 1500 3300
Wire Wire Line
	2600 3300 2600 3250
Wire Wire Line
	1500 3150 1500 3300
Connection ~ 1500 3300
Wire Wire Line
	1500 3300 1750 3300
Wire Wire Line
	1750 2950 1750 3300
Wire Wire Line
	2600 2850 2600 2950
Wire Wire Line
	1750 2950 1800 2950
Wire Wire Line
	1750 2950 1750 2800
Wire Wire Line
	1750 2800 1800 2800
Connection ~ 1750 2950
Text GLabel 1450 2550 0    50   Input ~ 0
5V
Wire Wire Line
	2600 2550 2450 2550
Connection ~ 2600 2550
Wire Wire Line
	2450 2950 2600 2950
Connection ~ 2600 2950
Wire Wire Line
	2600 2950 2600 3050
Wire Wire Line
	2600 3300 1750 3300
Connection ~ 2600 3300
Connection ~ 1750 3300
Wire Wire Line
	1500 2950 1500 2550
Wire Wire Line
	1500 2550 1450 2550
Wire Wire Line
	1500 2550 1800 2550
Connection ~ 1500 2550
Connection ~ 4250 2550
Wire Wire Line
	4250 2550 4550 2550
Wire Wire Line
	4250 2550 4200 2550
Wire Wire Line
	4250 2950 4250 2550
Connection ~ 4500 3300
Connection ~ 5350 3300
Wire Wire Line
	5350 3300 4500 3300
Wire Wire Line
	5350 2950 5350 3050
Connection ~ 5350 2950
Wire Wire Line
	5200 2950 5350 2950
Connection ~ 5350 2550
Wire Wire Line
	5350 2550 5200 2550
Text GLabel 4200 2550 0    50   Input ~ 0
5V
Connection ~ 4500 2950
Wire Wire Line
	4500 2800 4550 2800
Wire Wire Line
	4500 2950 4500 2800
Wire Wire Line
	4500 2950 4550 2950
Wire Wire Line
	5350 2850 5350 2950
Wire Wire Line
	4500 2950 4500 3300
Wire Wire Line
	4250 3300 4500 3300
Connection ~ 4250 3300
Wire Wire Line
	4250 3150 4250 3300
Wire Wire Line
	5350 3300 5350 3250
Wire Wire Line
	4050 3300 4250 3300
Wire Wire Line
	5350 2550 5350 2650
Text GLabel 4050 3300 0    50   Input ~ 0
GND
$Comp
L Device:R_Small R19
U 1 1 5E8381AB
P 5350 2750
F 0 "R19" H 5409 2796 50  0000 L CNN
F 1 "182k" H 5409 2705 50  0000 L CNN
F 2 "Resistor_SMD:R_0603_1608Metric_Pad1.05x0.95mm_HandSolder" H 5350 2750 50  0001 C CNN
F 3 "~" H 5350 2750 50  0001 C CNN
	1    5350 2750
	1    0    0    -1  
$EndComp
$Comp
L Device:R_Small R20
U 1 1 5E8381A1
P 5350 3150
F 0 "R20" H 5409 3196 50  0000 L CNN
F 1 "66k5" H 5409 3105 50  0000 L CNN
F 2 "Resistor_SMD:R_0603_1608Metric_Pad1.05x0.95mm_HandSolder" H 5350 3150 50  0001 C CNN
F 3 "~" H 5350 3150 50  0001 C CNN
	1    5350 3150
	1    0    0    -1  
$EndComp
$Comp
L Device:C_Small C6
U 1 1 5E838197
P 4250 3050
F 0 "C6" H 4342 3096 50  0000 L CNN
F 1 "1u" H 4342 3005 50  0000 L CNN
F 2 "Capacitor_SMD:C_0603_1608Metric_Pad1.05x0.95mm_HandSolder" H 4250 3050 50  0001 C CNN
F 3 "~" H 4250 3050 50  0001 C CNN
	1    4250 3050
	1    0    0    -1  
$EndComp
$Comp
L gbtx:TPS76201 T3
U 1 1 5E83818D
P 4850 2650
F 0 "T3" H 4875 3015 50  0000 C CNN
F 1 "TPS76201" H 4875 2924 50  0000 C CNN
F 2 "gbtx-testboard:TPS76201" H 5100 2650 50  0001 C CNN
F 3 "" H 5100 2650 50  0001 C CNN
	1    4850 2650
	1    0    0    -1  
$EndComp
$Comp
L gbtx:TPS76201 T2
U 1 1 5E83CC7B
P 2100 3900
F 0 "T2" H 2125 4265 50  0000 C CNN
F 1 "TPS76201" H 2125 4174 50  0000 C CNN
F 2 "gbtx-testboard:TPS76201" H 2350 3900 50  0001 C CNN
F 3 "" H 2350 3900 50  0001 C CNN
	1    2100 3900
	1    0    0    -1  
$EndComp
$Comp
L Device:C_Small C3
U 1 1 5E83CC85
P 1500 4300
F 0 "C3" H 1592 4346 50  0000 L CNN
F 1 "1u" H 1592 4255 50  0000 L CNN
F 2 "Capacitor_SMD:C_0603_1608Metric_Pad1.05x0.95mm_HandSolder" H 1500 4300 50  0001 C CNN
F 3 "~" H 1500 4300 50  0001 C CNN
	1    1500 4300
	1    0    0    -1  
$EndComp
$Comp
L Device:R_Small R18
U 1 1 5E83CC8F
P 2600 4400
F 0 "R18" H 2659 4446 50  0000 L CNN
F 1 "66k5" H 2659 4355 50  0000 L CNN
F 2 "Resistor_SMD:R_0603_1608Metric_Pad1.05x0.95mm_HandSolder" H 2600 4400 50  0001 C CNN
F 3 "~" H 2600 4400 50  0001 C CNN
	1    2600 4400
	1    0    0    -1  
$EndComp
$Comp
L Device:R_Small R17
U 1 1 5E83CC99
P 2600 4000
F 0 "R17" H 2659 4046 50  0000 L CNN
F 1 "113k" H 2659 3955 50  0000 L CNN
F 2 "Resistor_SMD:R_0603_1608Metric_Pad1.05x0.95mm_HandSolder" H 2600 4000 50  0001 C CNN
F 3 "~" H 2600 4000 50  0001 C CNN
	1    2600 4000
	1    0    0    -1  
$EndComp
Text GLabel 1300 4550 0    50   Input ~ 0
GND
Wire Wire Line
	2600 3800 2600 3900
Wire Wire Line
	1300 4550 1500 4550
Wire Wire Line
	2600 4550 2600 4500
Wire Wire Line
	1500 4400 1500 4550
Connection ~ 1500 4550
Wire Wire Line
	1500 4550 1750 4550
Wire Wire Line
	1750 4200 1750 4550
Wire Wire Line
	2600 4100 2600 4200
Wire Wire Line
	1750 4200 1800 4200
Wire Wire Line
	1750 4200 1750 4050
Wire Wire Line
	1750 4050 1800 4050
Connection ~ 1750 4200
Text GLabel 1450 3800 0    50   Input ~ 0
5V
Wire Wire Line
	2600 3800 2450 3800
Connection ~ 2600 3800
Wire Wire Line
	2450 4200 2600 4200
Connection ~ 2600 4200
Wire Wire Line
	2600 4200 2600 4300
Wire Wire Line
	2600 4550 1750 4550
Connection ~ 2600 4550
Connection ~ 1750 4550
Wire Wire Line
	1500 4200 1500 3800
Wire Wire Line
	1500 3800 1450 3800
Wire Wire Line
	1500 3800 1800 3800
Connection ~ 1500 3800
Connection ~ 4250 3800
Wire Wire Line
	4250 3800 4550 3800
Wire Wire Line
	4250 3800 4200 3800
Wire Wire Line
	4250 4200 4250 3800
Connection ~ 4500 4550
Connection ~ 5350 4550
Wire Wire Line
	5350 4550 4500 4550
Wire Wire Line
	5350 4200 5350 4300
Connection ~ 5350 4200
Wire Wire Line
	5200 4200 5350 4200
Connection ~ 5350 3800
Wire Wire Line
	5350 3800 5200 3800
Text GLabel 4200 3800 0    50   Input ~ 0
5V
Connection ~ 4500 4200
Wire Wire Line
	4500 4050 4550 4050
Wire Wire Line
	4500 4200 4500 4050
Wire Wire Line
	4500 4200 4550 4200
Wire Wire Line
	5350 4100 5350 4200
Wire Wire Line
	4500 4200 4500 4550
Wire Wire Line
	4250 4550 4500 4550
Connection ~ 4250 4550
Wire Wire Line
	4250 4400 4250 4550
Wire Wire Line
	5350 4550 5350 4500
Wire Wire Line
	4050 4550 4250 4550
Wire Wire Line
	5350 3800 5350 3900
Text GLabel 4050 4550 0    50   Input ~ 0
GND
$Comp
L Device:R_Small R21
U 1 1 5E83CCF9
P 5350 4000
F 0 "R21" H 5409 4046 50  0000 L CNN
F 1 "83k5" H 5409 3955 50  0000 L CNN
F 2 "Resistor_SMD:R_0603_1608Metric_Pad1.05x0.95mm_HandSolder" H 5350 4000 50  0001 C CNN
F 3 "~" H 5350 4000 50  0001 C CNN
	1    5350 4000
	1    0    0    -1  
$EndComp
$Comp
L Device:R_Small R22
U 1 1 5E83CD03
P 5350 4400
F 0 "R22" H 5409 4446 50  0000 L CNN
F 1 "66k5" H 5409 4355 50  0000 L CNN
F 2 "Resistor_SMD:R_0603_1608Metric_Pad1.05x0.95mm_HandSolder" H 5350 4400 50  0001 C CNN
F 3 "~" H 5350 4400 50  0001 C CNN
	1    5350 4400
	1    0    0    -1  
$EndComp
$Comp
L Device:C_Small C7
U 1 1 5E83CD0D
P 4250 4300
F 0 "C7" H 4342 4346 50  0000 L CNN
F 1 "1u" H 4342 4255 50  0000 L CNN
F 2 "Capacitor_SMD:C_0603_1608Metric_Pad1.05x0.95mm_HandSolder" H 4250 4300 50  0001 C CNN
F 3 "~" H 4250 4300 50  0001 C CNN
	1    4250 4300
	1    0    0    -1  
$EndComp
$Comp
L gbtx:TPS76201 T4
U 1 1 5E83CD17
P 4850 3900
F 0 "T4" H 4875 4265 50  0000 C CNN
F 1 "TPS76201" H 4875 4174 50  0000 C CNN
F 2 "gbtx-testboard:TPS76201" H 5100 3900 50  0001 C CNN
F 3 "" H 5100 3900 50  0001 C CNN
	1    4850 3900
	1    0    0    -1  
$EndComp
$Comp
L Connector:Barrel_Jack J1
U 1 1 5E7FC76A
P 1550 1800
F 0 "J1" H 1607 2125 50  0000 C CNN
F 1 "Barrel_Jack" H 1607 2034 50  0000 C CNN
F 2 "gbtx-testboard:screw_term" H 1600 1760 50  0001 C CNN
F 3 "~" H 1600 1760 50  0001 C CNN
	1    1550 1800
	1    0    0    -1  
$EndComp
Text GLabel 2050 1700 2    50   Input ~ 0
5V
Text GLabel 2050 1900 2    50   Input ~ 0
GND
Wire Wire Line
	2050 1900 1850 1900
Wire Wire Line
	1850 1700 2050 1700
Text Notes 800  850  0    129  ~ 0
Power Regulators
$Comp
L gbtx:INA333AIDRG U5
U 1 1 5EB77F10
P 7800 2300
F 0 "U5" H 8044 2171 50  0000 L CNN
F 1 "INA333AIDRG" H 8044 2080 50  0000 L CNN
F 2 "gbtx-testboard:INA333AIDRG" H 7800 2300 50  0001 C CNN
F 3 "" H 7800 2300 50  0001 C CNN
	1    7800 2300
	1    0    0    -1  
$EndComp
$Comp
L gbtx:INA333AIDRG U6
U 1 1 5EB78927
P 7800 4050
F 0 "U6" H 8044 3921 50  0000 L CNN
F 1 "INA333AIDRG" H 8044 3830 50  0000 L CNN
F 2 "gbtx-testboard:INA333AIDRG" H 7800 4050 50  0001 C CNN
F 3 "" H 7800 4050 50  0001 C CNN
	1    7800 4050
	1    0    0    -1  
$EndComp
$Comp
L gbtx:INA333AIDRG U7
U 1 1 5EB78FB9
P 9700 2300
F 0 "U7" H 9944 2171 50  0000 L CNN
F 1 "INA333AIDRG" H 9944 2080 50  0000 L CNN
F 2 "gbtx-testboard:INA333AIDRG" H 9700 2300 50  0001 C CNN
F 3 "" H 9700 2300 50  0001 C CNN
	1    9700 2300
	1    0    0    -1  
$EndComp
$Comp
L gbtx:INA333AIDRG U8
U 1 1 5EB7978C
P 9700 4050
F 0 "U8" H 9944 3921 50  0000 L CNN
F 1 "INA333AIDRG" H 9944 3830 50  0000 L CNN
F 2 "gbtx-testboard:INA333AIDRG" H 9700 4050 50  0001 C CNN
F 3 "" H 9700 4050 50  0001 C CNN
	1    9700 4050
	1    0    0    -1  
$EndComp
$Comp
L Device:R_Small R36
U 1 1 5EBAE295
P 7700 1750
F 0 "R36" H 7759 1796 50  0000 L CNN
F 1 "R_Small" H 7759 1705 50  0000 L CNN
F 2 "Resistor_SMD:R_0603_1608Metric_Pad1.05x0.95mm_HandSolder" H 7700 1750 50  0001 C CNN
F 3 "~" H 7700 1750 50  0001 C CNN
	1    7700 1750
	1    0    0    -1  
$EndComp
$Comp
L Device:R_Small R37
U 1 1 5EBAF200
P 7700 3450
F 0 "R37" H 7759 3496 50  0000 L CNN
F 1 "R_Small" H 7759 3405 50  0000 L CNN
F 2 "Resistor_SMD:R_0603_1608Metric_Pad1.05x0.95mm_HandSolder" H 7700 3450 50  0001 C CNN
F 3 "~" H 7700 3450 50  0001 C CNN
	1    7700 3450
	1    0    0    -1  
$EndComp
$Comp
L Device:R_Small R38
U 1 1 5EBAFAB0
P 9600 1750
F 0 "R38" H 9659 1796 50  0000 L CNN
F 1 "R_Small" H 9659 1705 50  0000 L CNN
F 2 "Resistor_SMD:R_0603_1608Metric_Pad1.05x0.95mm_HandSolder" H 9600 1750 50  0001 C CNN
F 3 "~" H 9600 1750 50  0001 C CNN
	1    9600 1750
	1    0    0    -1  
$EndComp
$Comp
L Device:R_Small R39
U 1 1 5EBB02EC
P 9600 3450
F 0 "R39" H 9659 3496 50  0000 L CNN
F 1 "R_Small" H 9659 3405 50  0000 L CNN
F 2 "Resistor_SMD:R_0603_1608Metric_Pad1.05x0.95mm_HandSolder" H 9600 3450 50  0001 C CNN
F 3 "~" H 9600 3450 50  0001 C CNN
	1    9600 3450
	1    0    0    -1  
$EndComp
Text GLabel 7900 2000 1    50   Input ~ 0
5V
Wire Wire Line
	7900 2000 7900 2200
Wire Wire Line
	9800 2000 9800 2200
Wire Wire Line
	9600 2100 9600 1850
Wire Wire Line
	9600 1650 9600 1600
Wire Wire Line
	9500 1600 9500 2050
Wire Wire Line
	7700 2100 7700 1850
Wire Wire Line
	7700 1650 7600 1650
Wire Wire Line
	7600 1650 7600 2050
Wire Wire Line
	7700 3550 7700 3850
Wire Wire Line
	7700 3350 7600 3350
Wire Wire Line
	7600 3350 7600 3800
Text GLabel 7900 3700 1    50   Input ~ 0
5V
Wire Wire Line
	7900 3950 7900 3700
Wire Wire Line
	9800 3950 9800 3700
Wire Wire Line
	9600 3850 9600 3550
Wire Wire Line
	9600 3350 9500 3350
Wire Wire Line
	9500 3350 9500 3800
Text Label 7050 2550 0    50   ~ 0
3V3_MON+
Wire Wire Line
	7050 2550 7500 2550
Text Label 7050 2350 0    50   ~ 0
3V3_MON-
Wire Wire Line
	7050 2350 7500 2350
Text Label 7050 4300 0    50   ~ 0
1V8_MON+
Wire Wire Line
	7050 4300 7500 4300
Text Label 7050 4100 0    50   ~ 0
1V8_MON-
Wire Wire Line
	7050 4100 7500 4100
Text Label 8950 2550 0    50   ~ 0
2V5_MON+
Wire Wire Line
	8950 2550 9400 2550
Text Label 8950 2350 0    50   ~ 0
2V5_MON-
Wire Wire Line
	8950 2350 9400 2350
Text Label 8950 4300 0    50   ~ 0
1V5_MON+
Wire Wire Line
	8950 4300 9400 4300
Text Label 8950 4100 0    50   ~ 0
1V5_MON-
Wire Wire Line
	8950 4100 9400 4100
Text GLabel 7550 3050 0    50   Input ~ 0
GND
Wire Wire Line
	7550 3050 7600 3050
Wire Wire Line
	7600 3050 7600 2850
Wire Wire Line
	7600 3050 7700 3050
Wire Wire Line
	7700 3050 7700 2800
Connection ~ 7600 3050
Wire Wire Line
	7700 3050 7900 3050
Wire Wire Line
	7900 3050 7900 2700
Connection ~ 7700 3050
Text GLabel 9450 3050 0    50   Input ~ 0
GND
Wire Wire Line
	9450 3050 9500 3050
Wire Wire Line
	9500 3050 9500 2850
Wire Wire Line
	9500 3050 9600 3050
Wire Wire Line
	9600 3050 9600 2800
Connection ~ 9500 3050
Wire Wire Line
	9600 3050 9800 3050
Wire Wire Line
	9800 3050 9800 2700
Connection ~ 9600 3050
Text GLabel 7550 4800 0    50   Input ~ 0
GND
Wire Wire Line
	7550 4800 7600 4800
Wire Wire Line
	7600 4800 7600 4600
Wire Wire Line
	7600 4800 7700 4800
Wire Wire Line
	7700 4800 7700 4550
Connection ~ 7600 4800
Wire Wire Line
	7700 4800 7900 4800
Wire Wire Line
	7900 4800 7900 4450
Connection ~ 7700 4800
Text GLabel 9450 4800 0    50   Input ~ 0
GND
Wire Wire Line
	9450 4800 9500 4800
Wire Wire Line
	9500 4800 9500 4600
Wire Wire Line
	9500 4800 9600 4800
Wire Wire Line
	9600 4800 9600 4550
Connection ~ 9500 4800
Wire Wire Line
	9600 4800 9800 4800
Wire Wire Line
	9800 4800 9800 4450
Connection ~ 9600 4800
Text Label 8700 2450 2    50   ~ 0
3V3_MON
Wire Wire Line
	8700 2450 8300 2450
Text Label 10700 2450 2    50   ~ 0
2V5_MON
Wire Wire Line
	10700 2450 10200 2450
Text Label 8750 4200 2    50   ~ 0
1V8_MON
Wire Wire Line
	8750 4200 8300 4200
Text Label 10700 4200 2    50   ~ 0
1V5_MON
Wire Wire Line
	10700 4200 10200 4200
$Comp
L Connector:TestPoint TP1
U 1 1 5EC75610
P 8700 2450
F 0 "TP1" H 8758 2568 50  0000 L CNN
F 1 "TestPoint" H 8758 2477 50  0000 L CNN
F 2 "TestPoint:TestPoint_Keystone_5015_Micro-Minature" H 8900 2450 50  0001 C CNN
F 3 "~" H 8900 2450 50  0001 C CNN
	1    8700 2450
	1    0    0    -1  
$EndComp
$Comp
L Connector:TestPoint TP3
U 1 1 5EC761D9
P 10700 2450
F 0 "TP3" H 10758 2568 50  0000 L CNN
F 1 "TestPoint" H 10758 2477 50  0000 L CNN
F 2 "TestPoint:TestPoint_Keystone_5015_Micro-Minature" H 10900 2450 50  0001 C CNN
F 3 "~" H 10900 2450 50  0001 C CNN
	1    10700 2450
	1    0    0    -1  
$EndComp
$Comp
L Connector:TestPoint TP2
U 1 1 5EC76C21
P 8750 4200
F 0 "TP2" H 8808 4318 50  0000 L CNN
F 1 "TestPoint" H 8808 4227 50  0000 L CNN
F 2 "TestPoint:TestPoint_Keystone_5015_Micro-Minature" H 8950 4200 50  0001 C CNN
F 3 "~" H 8950 4200 50  0001 C CNN
	1    8750 4200
	1    0    0    -1  
$EndComp
$Comp
L Connector:TestPoint TP4
U 1 1 5EC770A4
P 10700 4200
F 0 "TP4" H 10758 4318 50  0000 L CNN
F 1 "TestPoint" H 10758 4227 50  0000 L CNN
F 2 "TestPoint:TestPoint_Keystone_5015_Micro-Minature" H 10900 4200 50  0001 C CNN
F 3 "~" H 10900 4200 50  0001 C CNN
	1    10700 4200
	1    0    0    -1  
$EndComp
Wire Wire Line
	9600 1600 9500 1600
$Comp
L Connector:USB_B_Micro J3
U 1 1 5ECB9815
P 2950 1650
F 0 "J3" H 3007 2117 50  0000 C CNN
F 1 "USB_B_Micro" H 3007 2026 50  0000 C CNN
F 2 "Connector_USB:USB_Micro-B_Molex-105017-0001" H 3100 1600 50  0001 C CNN
F 3 "~" H 3100 1600 50  0001 C CNN
	1    2950 1650
	1    0    0    -1  
$EndComp
Wire Wire Line
	3450 1450 3250 1450
NoConn ~ 3250 1650
NoConn ~ 3250 1750
NoConn ~ 3250 1850
Text GLabel 2750 2150 0    50   Input ~ 0
GND
Wire Wire Line
	2750 2150 2850 2150
Wire Wire Line
	2950 2150 2950 2050
Wire Wire Line
	2850 2050 2850 2150
Connection ~ 2850 2150
Wire Wire Line
	2850 2150 2950 2150
Text GLabel 6300 3800 2    50   Input ~ 0
1V5
Text GLabel 6200 2550 2    50   Input ~ 0
2V5
Wire Wire Line
	5550 3700 5900 3700
Wire Wire Line
	5900 3700 5900 3800
Text Label 5550 3700 0    50   ~ 0
1V5_MON+
Wire Wire Line
	6050 2450 6050 2550
Wire Wire Line
	6400 2450 6050 2450
Text Label 6400 2450 2    50   ~ 0
2V5_MON-
Wire Wire Line
	5500 2450 5850 2450
Wire Wire Line
	5850 2450 5850 2550
Text Label 5500 2450 0    50   ~ 0
2V5_MON+
Text GLabel 3450 2550 2    50   Input ~ 0
3V3
Connection ~ 6050 2550
Connection ~ 5900 3800
Connection ~ 5850 2550
$Comp
L Device:R_Small R35
U 1 1 5EB4D12C
P 6000 3800
F 0 "R35" V 5804 3800 50  0000 C CNN
F 1 "LVK25R002FE" V 6100 3800 50  0000 C CNN
F 2 "gbtx-testboard:LVK25R002FE" H 6000 3800 50  0001 C CNN
F 3 "~" H 6000 3800 50  0001 C CNN
	1    6000 3800
	0    1    1    0   
$EndComp
$Comp
L Device:R_Small R34
U 1 1 5EB4CAF3
P 5950 2550
F 0 "R34" V 5754 2550 50  0000 C CNN
F 1 "LVK25R002FE" V 6050 2600 50  0000 C CNN
F 2 "gbtx-testboard:LVK25R002FE" H 5950 2550 50  0001 C CNN
F 3 "~" H 5950 2550 50  0001 C CNN
	1    5950 2550
	0    1    1    0   
$EndComp
Wire Wire Line
	3150 5600 3200 5600
Wire Wire Line
	3200 6300 3200 6200
Wire Wire Line
	3200 5600 3200 5700
Wire Wire Line
	3200 5900 3200 6000
$Comp
L Device:LED_Small D2
U 1 1 5E8505DA
P 3200 6100
F 0 "D2" V 3246 6032 50  0000 R CNN
F 1 "LED" V 3155 6032 50  0000 R CNN
F 2 "LED_SMD:LED_0805_2012Metric_Pad1.15x1.40mm_HandSolder" V 3200 6100 50  0001 C CNN
F 3 "~" V 3200 6100 50  0001 C CNN
	1    3200 6100
	0    -1   -1   0   
$EndComp
$Comp
L Device:R_Small R24
U 1 1 5E8505D0
P 3200 5800
F 0 "R24" H 3259 5846 50  0000 L CNN
F 1 "1k5" H 3259 5755 50  0000 L CNN
F 2 "Resistor_SMD:R_0603_1608Metric_Pad1.05x0.95mm_HandSolder" H 3200 5800 50  0001 C CNN
F 3 "~" H 3200 5800 50  0001 C CNN
	1    3200 5800
	1    0    0    -1  
$EndComp
Connection ~ 3300 2550
Wire Wire Line
	3300 2450 3300 2550
Wire Wire Line
	3650 2450 3300 2450
Text Label 3650 2450 2    50   ~ 0
3V3_MON-
Wire Wire Line
	2750 2450 3100 2450
Connection ~ 3100 2550
Wire Wire Line
	3100 2450 3100 2550
Text Label 2750 2450 0    50   ~ 0
3V3_MON+
$Comp
L Device:R_Small R32
U 1 1 5EB1F499
P 3200 2550
F 0 "R32" V 3004 2550 50  0000 C CNN
F 1 "LVK25R002FE" V 3300 2600 50  0000 C CNN
F 2 "gbtx-testboard:LVK25R002FE" H 3200 2550 50  0001 C CNN
F 3 "~" H 3200 2550 50  0001 C CNN
	1    3200 2550
	0    1    1    0   
$EndComp
Connection ~ 3500 6300
Wire Wire Line
	3200 6300 3500 6300
Wire Wire Line
	3800 6300 3500 6300
Wire Wire Line
	3750 5600 3800 5600
Text GLabel 3750 5600 0    50   Input ~ 0
1V5
Wire Wire Line
	3450 5600 3500 5600
Text GLabel 3450 5600 0    50   Input ~ 0
1V8
Wire Wire Line
	3800 6300 3800 6200
Wire Wire Line
	3800 5600 3800 5700
Wire Wire Line
	3800 5900 3800 6000
$Comp
L Device:LED_Small D4
U 1 1 5E859EAC
P 3800 6100
F 0 "D4" V 3846 6032 50  0000 R CNN
F 1 "LED" V 3755 6032 50  0000 R CNN
F 2 "LED_SMD:LED_0805_2012Metric_Pad1.15x1.40mm_HandSolder" V 3800 6100 50  0001 C CNN
F 3 "~" V 3800 6100 50  0001 C CNN
	1    3800 6100
	0    -1   -1   0   
$EndComp
$Comp
L Device:R_Small R26
U 1 1 5E859EA2
P 3800 5800
F 0 "R26" H 3859 5846 50  0000 L CNN
F 1 "1k5" H 3859 5755 50  0000 L CNN
F 2 "Resistor_SMD:R_0603_1608Metric_Pad1.05x0.95mm_HandSolder" H 3800 5800 50  0001 C CNN
F 3 "~" H 3800 5800 50  0001 C CNN
	1    3800 5800
	1    0    0    -1  
$EndComp
Wire Wire Line
	3500 6300 3500 6200
Wire Wire Line
	3500 5600 3500 5700
Wire Wire Line
	3500 5900 3500 6000
$Comp
L Device:LED_Small D3
U 1 1 5E8551A3
P 3500 6100
F 0 "D3" V 3546 6032 50  0000 R CNN
F 1 "LED" V 3455 6032 50  0000 R CNN
F 2 "LED_SMD:LED_0805_2012Metric_Pad1.15x1.40mm_HandSolder" V 3500 6100 50  0001 C CNN
F 3 "~" V 3500 6100 50  0001 C CNN
	1    3500 6100
	0    -1   -1   0   
$EndComp
$Comp
L Device:R_Small R25
U 1 1 5E855199
P 3500 5800
F 0 "R25" H 3559 5846 50  0000 L CNN
F 1 "1k5" H 3559 5755 50  0000 L CNN
F 2 "Resistor_SMD:R_0603_1608Metric_Pad1.05x0.95mm_HandSolder" H 3500 5800 50  0001 C CNN
F 3 "~" H 3500 5800 50  0001 C CNN
	1    3500 5800
	1    0    0    -1  
$EndComp
Connection ~ 3200 6300
Connection ~ 2900 6300
Wire Wire Line
	3200 6300 2900 6300
Text GLabel 3150 5600 0    50   Input ~ 0
2V5
Wire Wire Line
	2800 6300 2900 6300
Wire Wire Line
	2900 6300 2900 6200
Text GLabel 2800 6300 0    50   Input ~ 0
GND
Wire Wire Line
	2900 5600 2900 5700
Wire Wire Line
	2800 5600 2900 5600
Wire Wire Line
	2900 5900 2900 6000
$Comp
L Device:LED_Small D1
U 1 1 5E845B8B
P 2900 6100
F 0 "D1" V 2946 6032 50  0000 R CNN
F 1 "LED" V 2855 6032 50  0000 R CNN
F 2 "LED_SMD:LED_0805_2012Metric_Pad1.15x1.40mm_HandSolder" V 2900 6100 50  0001 C CNN
F 3 "~" V 2900 6100 50  0001 C CNN
	1    2900 6100
	0    -1   -1   0   
$EndComp
$Comp
L Device:R_Small R23
U 1 1 5E82D837
P 2900 5800
F 0 "R23" H 2959 5846 50  0000 L CNN
F 1 "1k5" H 2959 5755 50  0000 L CNN
F 2 "Resistor_SMD:R_0603_1608Metric_Pad1.05x0.95mm_HandSolder" H 2900 5800 50  0001 C CNN
F 3 "~" H 2900 5800 50  0001 C CNN
	1    2900 5800
	1    0    0    -1  
$EndComp
Text GLabel 2800 5600 0    50   Input ~ 0
3V3
Wire Wire Line
	2600 4550 2950 4550
Wire Wire Line
	2950 3800 2600 3800
Wire Wire Line
	2950 4150 2950 3800
Wire Wire Line
	2950 4550 2950 4350
$Comp
L Device:C_Small C5
U 1 1 5E83CCA4
P 2950 4250
F 0 "C5" H 3042 4296 50  0000 L CNN
F 1 "4u7" H 3042 4205 50  0000 L CNN
F 2 "Capacitor_SMD:C_0603_1608Metric_Pad1.05x0.95mm_HandSolder" H 2950 4250 50  0001 C CNN
F 3 "~" H 2950 4250 50  0001 C CNN
	1    2950 4250
	1    0    0    -1  
$EndComp
Wire Wire Line
	5350 4550 5700 4550
Connection ~ 5700 3800
Wire Wire Line
	5700 3800 5900 3800
Wire Wire Line
	5700 3800 5350 3800
Wire Wire Line
	6100 3800 6300 3800
$Comp
L Device:C_Small C9
U 1 1 5E83CCEE
P 5700 4250
F 0 "C9" H 5792 4296 50  0000 L CNN
F 1 "4u7" H 5792 4205 50  0000 L CNN
F 2 "Capacitor_SMD:C_0603_1608Metric_Pad1.05x0.95mm_HandSolder" H 5700 4250 50  0001 C CNN
F 3 "~" H 5700 4250 50  0001 C CNN
	1    5700 4250
	1    0    0    -1  
$EndComp
Wire Wire Line
	5700 4550 5700 4350
Wire Wire Line
	5700 4150 5700 3800
Wire Wire Line
	5350 3300 5700 3300
Connection ~ 5700 2550
Wire Wire Line
	5700 2550 5850 2550
Wire Wire Line
	5700 2550 5350 2550
Wire Wire Line
	6050 2550 6200 2550
$Comp
L Device:C_Small C8
U 1 1 5E8381B6
P 5700 3000
F 0 "C8" H 5792 3046 50  0000 L CNN
F 1 "4u7" H 5792 2955 50  0000 L CNN
F 2 "Capacitor_SMD:C_0603_1608Metric_Pad1.05x0.95mm_HandSolder" H 5700 3000 50  0001 C CNN
F 3 "~" H 5700 3000 50  0001 C CNN
	1    5700 3000
	1    0    0    -1  
$EndComp
Wire Wire Line
	5700 3300 5700 3100
Wire Wire Line
	5700 2900 5700 2550
Wire Wire Line
	2600 3300 2950 3300
Connection ~ 2950 2550
Wire Wire Line
	2950 2550 3100 2550
Wire Wire Line
	2950 2550 2600 2550
Wire Wire Line
	3300 2550 3450 2550
Wire Wire Line
	2950 2900 2950 2550
Wire Wire Line
	2950 3300 2950 3100
$Comp
L Device:C_Small C4
U 1 1 5E82FA1C
P 2950 3000
F 0 "C4" H 3042 3046 50  0000 L CNN
F 1 "4u7" H 3042 2955 50  0000 L CNN
F 2 "Capacitor_SMD:C_0603_1608Metric_Pad1.05x0.95mm_HandSolder" H 2950 3000 50  0001 C CNN
F 3 "~" H 2950 3000 50  0001 C CNN
	1    2950 3000
	1    0    0    -1  
$EndComp
Text GLabel 3450 1450 2    50   Input ~ 0
5V
Connection ~ 6100 3800
Wire Wire Line
	6100 3700 6100 3800
Wire Wire Line
	6450 3700 6100 3700
Text Label 6450 3700 2    50   ~ 0
1V5_MON-
Text GLabel 3450 3800 2    50   Input ~ 0
1V8
Wire Wire Line
	3300 3800 3450 3800
Connection ~ 2950 3800
Wire Wire Line
	2950 3800 3100 3800
$Comp
L Device:R_Small R33
U 1 1 5EB4C64A
P 3200 3800
F 0 "R33" V 3004 3800 50  0000 C CNN
F 1 "LVK25R002FE" V 3300 3850 50  0000 C CNN
F 2 "gbtx-testboard:LVK25R002FE" H 3200 3800 50  0001 C CNN
F 3 "~" H 3200 3800 50  0001 C CNN
	1    3200 3800
	0    1    1    0   
$EndComp
Text Label 2750 3700 0    50   ~ 0
1V8_MON+
Connection ~ 3100 3800
Wire Wire Line
	3100 3700 3100 3800
Wire Wire Line
	2750 3700 3100 3700
Text Label 3650 3700 2    50   ~ 0
1V8_MON-
Wire Wire Line
	3650 3700 3300 3700
Connection ~ 3300 3800
Wire Wire Line
	3300 3700 3300 3800
Text GLabel 9800 3700 1    50   Input ~ 0
5V
Text GLabel 9800 2000 1    50   Input ~ 0
5V
$EndSCHEMATC
