EESchema Schematic File Version 4
EELAYER 30 0
EELAYER END
$Descr A4 11693 8268
encoding utf-8
Sheet 1 3
Title "Proasic3 Mezannine Card "
Date "May 13 2020"
Rev ""
Comp "Stockholm University"
Comment1 "katherine.dunne@fysik.su.se"
Comment2 "K. Dunne"
Comment3 ""
Comment4 ""
$EndDescr
$Comp
L Device:R_Small R5
U 1 1 5E451BE6
P 7600 4700
F 0 "R5" H 7659 4746 50  0000 L CNN
F 1 "100" H 7659 4655 50  0000 L CNN
F 2 "Resistor_SMD:R_0603_1608Metric_Pad1.05x0.95mm_HandSolder" H 7600 4700 50  0001 C CNN
F 3 "~" H 7600 4700 50  0001 C CNN
	1    7600 4700
	1    0    0    -1  
$EndComp
Text Label 6750 4600 0    50   ~ 0
GBTX_TMS_REM_P
Text Label 6750 4800 0    50   ~ 0
GBTX_TMS_REM_N
Text Label 8650 4600 2    50   ~ 0
PROASIC_TMS_REM_P
Text Label 8650 4800 2    50   ~ 0
PROASIC_TMS_REM_N
Wire Wire Line
	6750 4600 7600 4600
Wire Wire Line
	7600 4600 8650 4600
Connection ~ 7600 4600
Wire Wire Line
	6750 4800 7600 4800
Wire Wire Line
	7600 4800 8650 4800
Connection ~ 7600 4800
$Comp
L Device:R_Small R6
U 1 1 5E49C559
P 7600 5050
F 0 "R6" H 7659 5096 50  0000 L CNN
F 1 "100" H 7659 5005 50  0000 L CNN
F 2 "Resistor_SMD:R_0603_1608Metric_Pad1.05x0.95mm_HandSolder" H 7600 5050 50  0001 C CNN
F 3 "~" H 7600 5050 50  0001 C CNN
	1    7600 5050
	1    0    0    -1  
$EndComp
Text Label 6750 4950 0    50   ~ 0
GBTX_TDI_REM_P
Text Label 6750 5150 0    50   ~ 0
GBTX_TDI_REM_N
Text Label 8650 4950 2    50   ~ 0
PROASIC_TDI_REM_P
Text Label 8650 5150 2    50   ~ 0
PROASIC_TDI_REM_N
Wire Wire Line
	6750 4950 7600 4950
Wire Wire Line
	7600 4950 8650 4950
Connection ~ 7600 4950
Wire Wire Line
	6750 5150 7600 5150
Wire Wire Line
	7600 5150 8650 5150
Connection ~ 7600 5150
$Comp
L Device:R_Small R7
U 1 1 5E4A6606
P 7600 5400
F 0 "R7" H 7659 5446 50  0000 L CNN
F 1 "100" H 7659 5355 50  0000 L CNN
F 2 "Resistor_SMD:R_0603_1608Metric_Pad1.05x0.95mm_HandSolder" H 7600 5400 50  0001 C CNN
F 3 "~" H 7600 5400 50  0001 C CNN
	1    7600 5400
	1    0    0    -1  
$EndComp
Text Label 6750 5300 0    50   ~ 0
GBTX_RST_REM_P
Text Label 6750 5500 0    50   ~ 0
GBTX_RST_REM_N
Text Label 8650 5300 2    50   ~ 0
PROASIC_RST_REM_P
Text Label 8650 5500 2    50   ~ 0
PROASIC_RST_REM_N
Wire Wire Line
	6750 5300 7600 5300
Wire Wire Line
	7600 5300 8650 5300
Connection ~ 7600 5300
Wire Wire Line
	6750 5500 7600 5500
Wire Wire Line
	7600 5500 8650 5500
Connection ~ 7600 5500
$Comp
L Device:R_Small R8
U 1 1 5E4A938F
P 7600 5750
F 0 "R8" H 7659 5796 50  0000 L CNN
F 1 "100" H 7659 5705 50  0000 L CNN
F 2 "Resistor_SMD:R_0603_1608Metric_Pad1.05x0.95mm_HandSolder" H 7600 5750 50  0001 C CNN
F 3 "~" H 7600 5750 50  0001 C CNN
	1    7600 5750
	1    0    0    -1  
$EndComp
Text Label 6750 5650 0    50   ~ 0
GBTX_TCK_REM_P
Text Label 6750 5850 0    50   ~ 0
GBTX_TCK_REM_N
Text Label 8650 5650 2    50   ~ 0
PROASIC_TCK_REM_P
Text Label 8650 5850 2    50   ~ 0
PROASIC_TCK_REM_N
Wire Wire Line
	6750 5650 7600 5650
Wire Wire Line
	7600 5650 8650 5650
Connection ~ 7600 5650
Wire Wire Line
	6750 5850 7600 5850
Wire Wire Line
	7600 5850 8650 5850
Connection ~ 7600 5850
$Comp
L Device:R_Small R9
U 1 1 5E4DF44B
P 7600 6100
F 0 "R9" H 7659 6146 50  0000 L CNN
F 1 "100" H 7659 6055 50  0000 L CNN
F 2 "Resistor_SMD:R_0603_1608Metric_Pad1.05x0.95mm_HandSolder" H 7600 6100 50  0001 C CNN
F 3 "~" H 7600 6100 50  0001 C CNN
	1    7600 6100
	1    0    0    -1  
$EndComp
Text Label 6750 6000 0    50   ~ 0
GBTX_KEY_A_P
Text Label 6750 6200 0    50   ~ 0
GBTX_KEY_A_N
Text Label 8650 6000 2    50   ~ 0
PROASIC_KEY_A_P
Text Label 8650 6200 2    50   ~ 0
PROASIC_KEY_A_N
Wire Wire Line
	6750 6000 7600 6000
Wire Wire Line
	7600 6000 8650 6000
Connection ~ 7600 6000
Wire Wire Line
	6750 6200 7600 6200
Wire Wire Line
	7600 6200 8650 6200
Connection ~ 7600 6200
$Comp
L Device:R_Small R10
U 1 1 5E50F21C
P 9650 4700
F 0 "R10" H 9709 4746 50  0000 L CNN
F 1 "100" H 9709 4655 50  0000 L CNN
F 2 "Resistor_SMD:R_0603_1608Metric_Pad1.05x0.95mm_HandSolder" H 9650 4700 50  0001 C CNN
F 3 "~" H 9650 4700 50  0001 C CNN
	1    9650 4700
	1    0    0    -1  
$EndComp
Text Label 8800 4600 0    50   ~ 0
GBTX_TMS_LOC_P
Text Label 8800 4800 0    50   ~ 0
GBTX_TMS_LOC_N
Text Label 10700 4600 2    50   ~ 0
PROASIC_TMS_LOC_P
Text Label 10700 4800 2    50   ~ 0
PROASIC_TMS_LOC_N
Wire Wire Line
	8800 4600 9650 4600
Wire Wire Line
	9650 4600 10700 4600
Connection ~ 9650 4600
Wire Wire Line
	8800 4800 9650 4800
Wire Wire Line
	9650 4800 10700 4800
Connection ~ 9650 4800
$Comp
L Device:R_Small R11
U 1 1 5E50F230
P 9650 5050
F 0 "R11" H 9709 5096 50  0000 L CNN
F 1 "100" H 9709 5005 50  0000 L CNN
F 2 "Resistor_SMD:R_0603_1608Metric_Pad1.05x0.95mm_HandSolder" H 9650 5050 50  0001 C CNN
F 3 "~" H 9650 5050 50  0001 C CNN
	1    9650 5050
	1    0    0    -1  
$EndComp
Text Label 8800 4950 0    50   ~ 0
GBTX_TDI_LOC_P
Text Label 8800 5150 0    50   ~ 0
GBTX_TDI_LOC_N
Text Label 10700 4950 2    50   ~ 0
PROASIC_TDI_LOC_P
Text Label 10700 5150 2    50   ~ 0
PROASIC_TDI_LOC_N
Wire Wire Line
	8800 4950 9650 4950
Wire Wire Line
	9650 4950 10700 4950
Connection ~ 9650 4950
Wire Wire Line
	8800 5150 9650 5150
Wire Wire Line
	9650 5150 10700 5150
Connection ~ 9650 5150
$Comp
L Device:R_Small R12
U 1 1 5E50F244
P 9650 5400
F 0 "R12" H 9709 5446 50  0000 L CNN
F 1 "100" H 9709 5355 50  0000 L CNN
F 2 "Resistor_SMD:R_0603_1608Metric_Pad1.05x0.95mm_HandSolder" H 9650 5400 50  0001 C CNN
F 3 "~" H 9650 5400 50  0001 C CNN
	1    9650 5400
	1    0    0    -1  
$EndComp
Text Label 8800 5300 0    50   ~ 0
GBTX_RST_LOC_P
Text Label 8800 5500 0    50   ~ 0
GBTX_RST_LOC_N
Text Label 10700 5300 2    50   ~ 0
PROASIC_RST_LOC_P
Text Label 10700 5500 2    50   ~ 0
PROASIC_RST_LOC_N
Wire Wire Line
	8800 5300 9650 5300
Wire Wire Line
	9650 5300 10700 5300
Connection ~ 9650 5300
Wire Wire Line
	8800 5500 9650 5500
Wire Wire Line
	9650 5500 10700 5500
Connection ~ 9650 5500
$Comp
L Device:R_Small R13
U 1 1 5E50F258
P 9650 5750
F 0 "R13" H 9709 5796 50  0000 L CNN
F 1 "100" H 9709 5705 50  0000 L CNN
F 2 "Resistor_SMD:R_0603_1608Metric_Pad1.05x0.95mm_HandSolder" H 9650 5750 50  0001 C CNN
F 3 "~" H 9650 5750 50  0001 C CNN
	1    9650 5750
	1    0    0    -1  
$EndComp
Text Label 8800 5650 0    50   ~ 0
GBTX_TCK_LOC_P
Text Label 8800 5850 0    50   ~ 0
GBTX_TCK_LOC_N
Text Label 10700 5650 2    50   ~ 0
PROASIC_TCK_LOC_P
Text Label 10700 5850 2    50   ~ 0
PROASIC_TCK_LOC_N
Wire Wire Line
	8800 5650 9650 5650
Wire Wire Line
	9650 5650 10700 5650
Connection ~ 9650 5650
Wire Wire Line
	8800 5850 9650 5850
Wire Wire Line
	9650 5850 10700 5850
Connection ~ 9650 5850
$Comp
L Device:R_Small R14
U 1 1 5E50F26C
P 9650 6100
F 0 "R14" H 9709 6146 50  0000 L CNN
F 1 "100" H 9709 6055 50  0000 L CNN
F 2 "Resistor_SMD:R_0603_1608Metric_Pad1.05x0.95mm_HandSolder" H 9650 6100 50  0001 C CNN
F 3 "~" H 9650 6100 50  0001 C CNN
	1    9650 6100
	1    0    0    -1  
$EndComp
Text Label 8800 6000 0    50   ~ 0
GBTX_KEY_B_P
Text Label 8800 6200 0    50   ~ 0
GBTX_KEY_B_N
Text Label 10700 6000 2    50   ~ 0
PROASIC_KEY_B_P
Text Label 10700 6200 2    50   ~ 0
PROASIC_KEY_B_N
Wire Wire Line
	8800 6000 9650 6000
Wire Wire Line
	9650 6000 10700 6000
Connection ~ 9650 6000
Wire Wire Line
	8800 6200 9650 6200
Wire Wire Line
	9650 6200 10700 6200
Connection ~ 9650 6200
Text Label 7600 2300 0    50   ~ 0
GBTX_RST_REM_P
Text Label 7600 2200 0    50   ~ 0
GBTX_RST_REM_N
Text Label 7600 2500 0    50   ~ 0
GBTX_TCK_REM_P
Text Label 7600 2600 0    50   ~ 0
GBTX_TCK_REM_N
Wire Wire Line
	7600 2600 8350 2600
Wire Wire Line
	7600 2500 8350 2500
Wire Wire Line
	7600 2200 8350 2200
Wire Wire Line
	7600 2300 8350 2300
Text Label 7600 1900 0    50   ~ 0
GBTX_TMS_LOC_P
Text Label 7600 2000 0    50   ~ 0
GBTX_TMS_LOC_N
Wire Wire Line
	7600 2000 8350 2000
Wire Wire Line
	7600 1900 8350 1900
Text Label 7600 1000 0    50   ~ 0
GBTX_TCK_LOC_P
Text Label 7600 1100 0    50   ~ 0
GBTX_TCK_LOC_N
Text Label 7600 1400 0    50   ~ 0
GBTX_KEY_A_P
Text Label 10800 2600 2    50   ~ 0
FPGA_TDI_REM
Text Label 10800 2700 2    50   ~ 0
FPGA_TMS_LOC
Text Label 10800 2800 2    50   ~ 0
FPGA_TCK_LOC
Wire Wire Line
	10050 2800 10800 2800
Wire Wire Line
	10800 2700 10050 2700
Wire Wire Line
	10800 2600 10050 2600
Text Label 7950 1200 0    50   ~ 0
GND
Text Label 7950 1500 0    50   ~ 0
GND
Text Label 7950 1800 0    50   ~ 0
GND
Text Label 7950 2100 0    50   ~ 0
GND
Text Label 7950 2400 0    50   ~ 0
GND
Wire Wire Line
	7950 2400 8350 2400
Text Label 7950 3000 0    50   ~ 0
GND
Text Label 10450 1200 2    50   ~ 0
GND
Text Label 10450 1500 2    50   ~ 0
GND
Text Label 10450 1800 2    50   ~ 0
GND
Text Label 10450 2100 2    50   ~ 0
GND
Text Notes 600  700  0    129  ~ 0
ProASIC3 Carrier Board
Text Label 7600 1300 0    50   ~ 0
GBTX_KEY_A_N
$Comp
L proasic-mezzanine-card-rescue:conn-gbtx U1
U 1 1 5E7053E7
P 8800 850
F 0 "U1" H 9200 965 50  0000 C CNN
F 1 "conn" H 9200 874 50  0000 C CNN
F 2 "Connector_PinHeader_2.54mm:PinHeader_2x21_P2.54mm_Vertical" H 8800 850 50  0001 C CNN
F 3 "" H 8800 850 50  0001 C CNN
	1    8800 850 
	1    0    0    -1  
$EndComp
Text Label 7600 1600 0    50   ~ 0
GBTX_DCLK6_P
Text Label 7600 1700 0    50   ~ 0
GBTX_DCLK6_N
Wire Wire Line
	8350 1700 7600 1700
Wire Wire Line
	7600 1100 8350 1100
Wire Wire Line
	7600 1000 8350 1000
Wire Wire Line
	7600 1400 8350 1400
Wire Wire Line
	7950 1200 8350 1200
Wire Wire Line
	7950 1500 8350 1500
Wire Wire Line
	7950 1800 8350 1800
Wire Wire Line
	7950 2100 8350 2100
Wire Wire Line
	7600 1300 8350 1300
Wire Wire Line
	7600 1600 8350 1600
Text Label 7950 2700 0    50   ~ 0
GND
Wire Wire Line
	7950 2700 8350 2700
Wire Wire Line
	10800 2900 10050 2900
Text Label 10800 2900 2    50   ~ 0
FPGA_TDI_LOC
Text Label 10800 3000 2    50   ~ 0
TESTCLOCKOUT
Wire Wire Line
	10800 3000 10050 3000
Wire Wire Line
	10450 2100 10050 2100
Wire Wire Line
	10450 1800 10050 1800
Wire Wire Line
	10450 1500 10050 1500
Wire Wire Line
	10450 1200 10050 1200
Wire Wire Line
	7950 3000 8350 3000
Wire Wire Line
	10800 1000 10050 1000
Wire Wire Line
	10800 2300 10050 2300
Wire Wire Line
	10050 2200 10800 2200
Wire Wire Line
	10800 2400 10050 2400
Wire Wire Line
	10050 2500 10800 2500
Text Label 10800 2500 2    50   ~ 0
FPGA_TCK_REM
Text Label 10800 2400 2    50   ~ 0
FPGA_TMS_REM
Text Label 10800 2200 2    50   ~ 0
GBTX_RXDATAVALID
Text Label 10800 2300 2    50   ~ 0
GBTX_RXRDY
Wire Wire Line
	10050 2000 10800 2000
Wire Wire Line
	10800 1900 10050 1900
Text Label 10800 2000 2    50   ~ 0
GBTX_KEY_B_N
Text Label 10800 1900 2    50   ~ 0
GBTX_KEY_B_P
Wire Wire Line
	10800 1600 10050 1600
Wire Wire Line
	10800 1700 10050 1700
Text Label 10800 1700 2    50   ~ 0
GBTX_RST_LOC_N
Text Label 10800 1600 2    50   ~ 0
GBTX_RST_LOC_P
Wire Wire Line
	10800 1400 10050 1400
Wire Wire Line
	10800 1300 10050 1300
Text Label 10800 1300 2    50   ~ 0
GBTX_TDI_LOC_N
Text Label 10800 1400 2    50   ~ 0
GBTX_TDI_LOC_P
Wire Wire Line
	10800 1100 10050 1100
Wire Wire Line
	7600 2900 8350 2900
Wire Wire Line
	7600 2800 8350 2800
Text Label 7600 2800 0    50   ~ 0
GBTX_TDI_REM_N
Text Label 7600 2900 0    50   ~ 0
GBTX_TDI_REM_P
Text Label 10800 1000 2    50   ~ 0
GBTX_TMS_REM_N
Text Label 10800 1100 2    50   ~ 0
GBTX_TMS_REM_P
$Comp
L Device:C_Small C1
U 1 1 5F2A0BC5
P 1500 1750
F 0 "C1" H 1592 1796 50  0000 L CNN
F 1 "0.1u" H 1592 1705 50  0000 L CNN
F 2 "Capacitor_SMD:C_0603_1608Metric_Pad1.05x0.95mm_HandSolder" H 1500 1750 50  0001 C CNN
F 3 "~" H 1500 1750 50  0001 C CNN
	1    1500 1750
	1    0    0    -1  
$EndComp
$Comp
L Device:R_Small R2
U 1 1 5F2A489B
P 2700 1500
F 0 "R2" H 2759 1546 50  0000 L CNN
F 1 "1K" H 2759 1455 50  0000 L CNN
F 2 "Resistor_SMD:R_0603_1608Metric_Pad1.05x0.95mm_HandSolder" H 2700 1500 50  0001 C CNN
F 3 "~" H 2700 1500 50  0001 C CNN
	1    2700 1500
	1    0    0    -1  
$EndComp
$Comp
L Device:R_Small R3
U 1 1 5F2A4DD9
P 2700 1900
F 0 "R3" H 2759 1946 50  0000 L CNN
F 1 "1K" H 2759 1855 50  0000 L CNN
F 2 "Resistor_SMD:R_0603_1608Metric_Pad1.05x0.95mm_HandSolder" H 2700 1900 50  0001 C CNN
F 3 "~" H 2700 1900 50  0001 C CNN
	1    2700 1900
	1    0    0    -1  
$EndComp
$Comp
L Device:R_Small R1
U 1 1 5F2A8F70
P 1750 1500
F 0 "R1" H 1809 1546 50  0000 L CNN
F 1 "10K" H 1809 1455 50  0000 L CNN
F 2 "Resistor_SMD:R_0603_1608Metric_Pad1.05x0.95mm_HandSolder" H 1750 1500 50  0001 C CNN
F 3 "~" H 1750 1500 50  0001 C CNN
	1    1750 1500
	1    0    0    -1  
$EndComp
Wire Wire Line
	2250 1300 2250 1400
Wire Wire Line
	2250 1300 2700 1300
Connection ~ 2250 1300
Wire Wire Line
	2700 1300 2700 1400
Wire Wire Line
	1750 1400 1750 1300
Connection ~ 1750 1300
Wire Wire Line
	1750 1300 2250 1300
Wire Wire Line
	1500 2100 2250 2100
Wire Wire Line
	2250 2000 2250 2100
Connection ~ 2250 2100
Wire Wire Line
	2250 2100 2700 2100
Text Label 1150 3800 0    50   ~ 0
PROASIC_TMS_REM_P
Text Label 1150 3900 0    50   ~ 0
PROASIC_TMS_REM_N
Wire Wire Line
	2200 3800 1150 3800
Wire Wire Line
	2200 3900 1150 3900
Text Label 1150 4000 0    50   ~ 0
PROASIC_TDI_REM_P
Text Label 1150 4100 0    50   ~ 0
PROASIC_TDI_REM_N
Wire Wire Line
	2200 4000 1150 4000
Wire Wire Line
	2200 4100 1150 4100
Text Label 1150 4800 0    50   ~ 0
PROASIC_RST_REM_P
Text Label 1150 4900 0    50   ~ 0
PROASIC_RST_REM_N
Wire Wire Line
	2200 4800 1150 4800
Wire Wire Line
	2200 4900 1150 4900
Text Label 1150 4200 0    50   ~ 0
PROASIC_TCK_REM_P
Text Label 1150 4300 0    50   ~ 0
PROASIC_TCK_REM_N
Wire Wire Line
	2200 4200 1150 4200
Wire Wire Line
	2200 4300 1150 4300
Text Label 1150 5400 0    50   ~ 0
PROASIC_KEY_A_P
Text Label 1150 5500 0    50   ~ 0
PROASIC_KEY_A_N
Wire Wire Line
	2200 5400 1150 5400
Wire Wire Line
	2200 5500 1150 5500
Text Label 1150 4400 0    50   ~ 0
PROASIC_TMS_LOC_P
Text Label 1150 4500 0    50   ~ 0
PROASIC_TMS_LOC_N
Wire Wire Line
	2200 4400 1150 4400
Wire Wire Line
	2200 4500 1150 4500
Text Label 1150 4600 0    50   ~ 0
PROASIC_TDI_LOC_P
Wire Wire Line
	2200 4600 1150 4600
Text Label 1150 5000 0    50   ~ 0
PROASIC_RST_LOC_P
Text Label 1150 5100 0    50   ~ 0
PROASIC_RST_LOC_N
Wire Wire Line
	2200 5000 1150 5000
Wire Wire Line
	2200 5100 1150 5100
Text Label 1150 5200 0    50   ~ 0
PROASIC_TCK_LOC_P
Text Label 1150 5300 0    50   ~ 0
PROASIC_TCK_LOC_N
Wire Wire Line
	2200 5200 1150 5200
Wire Wire Line
	2200 5300 1150 5300
Text Label 1150 5600 0    50   ~ 0
PROASIC_KEY_B_P
Text Label 1150 5700 0    50   ~ 0
PROASIC_KEY_B_N
Wire Wire Line
	2200 5600 1150 5600
Wire Wire Line
	2200 5700 1150 5700
Wire Wire Line
	2200 4700 1150 4700
Text Label 1150 4700 0    50   ~ 0
PROASIC_TDI_LOC_N
Text Label 1150 5800 0    50   ~ 0
GBTX_RXRDY
Text Label 1150 5900 0    50   ~ 0
GBTX_RXDATAVALID
Text Label 1150 6000 0    50   ~ 0
TESTCLOCKOUT
Text Label 1150 6100 0    50   ~ 0
PROASIC_DCLK6_P
Text Label 1150 6200 0    50   ~ 0
PROASIC_DCLK6_N
Text Label 1150 6300 0    50   ~ 0
CB_OSC
Wire Wire Line
	1150 6300 2200 6300
Wire Wire Line
	1150 6200 2200 6200
Wire Wire Line
	1150 6100 2200 6100
Wire Wire Line
	1150 6000 2200 6000
Wire Wire Line
	1150 5900 2200 5900
Wire Wire Line
	1150 5800 2200 5800
$Comp
L power:GND #PWR01
U 1 1 5F4F40CE
P 2700 2150
F 0 "#PWR01" H 2700 1900 50  0001 C CNN
F 1 "GND" H 2705 1977 50  0000 C CNN
F 2 "" H 2700 2150 50  0001 C CNN
F 3 "" H 2700 2150 50  0001 C CNN
	1    2700 2150
	1    0    0    -1  
$EndComp
Wire Wire Line
	2700 2100 2700 2150
Text Label 5100 5050 2    50   ~ 0
FPGA_TDI_REM
Text Label 5100 4850 2    50   ~ 0
FPGA_TMS_LOC
Text Label 5100 4650 2    50   ~ 0
FPGA_TCK_LOC
Wire Wire Line
	4350 4650 5100 4650
Wire Wire Line
	5100 4850 4350 4850
Wire Wire Line
	5100 5050 4350 5050
Wire Wire Line
	5100 4750 4350 4750
Text Label 5100 4750 2    50   ~ 0
FPGA_TDI_LOC
Wire Wire Line
	5100 5150 4350 5150
Wire Wire Line
	4350 4950 5100 4950
Text Label 5100 4950 2    50   ~ 0
FPGA_TCK_REM
Text Label 5100 5150 2    50   ~ 0
FPGA_TMS_REM
Wire Wire Line
	3400 1700 3050 1700
Text Label 3400 1700 2    50   ~ 0
CB_OSC
$Comp
L Device:R_Small R4
U 1 1 5F2A99D8
P 2950 1700
F 0 "R4" V 2754 1700 50  0000 C CNN
F 1 "39" V 2845 1700 50  0000 C CNN
F 2 "Resistor_SMD:R_0603_1608Metric_Pad1.05x0.95mm_HandSolder" H 2950 1700 50  0001 C CNN
F 3 "~" H 2950 1700 50  0001 C CNN
	1    2950 1700
	0    1    1    0   
$EndComp
Wire Wire Line
	1500 1850 1500 2100
Wire Wire Line
	1750 1600 1750 1700
Wire Wire Line
	1750 1700 1950 1700
Wire Wire Line
	1500 1650 1500 1300
Wire Wire Line
	1500 1300 1750 1300
Wire Wire Line
	2550 1700 2700 1700
Wire Wire Line
	2700 1700 2700 1800
Connection ~ 2700 1700
Wire Wire Line
	2700 1700 2850 1700
Wire Wire Line
	2700 1600 2700 1700
Wire Wire Line
	2700 2100 2700 2000
Connection ~ 2700 2100
$Sheet
S 5150 3300 900  750 
U 5E82CE99
F0 "Power" 50
F1 "Power_Regulators.sch" 50
$EndSheet
$Sheet
S 2200 3700 2150 2700
U 5E58F90F
F0 "Banks" 50
F1 "banks.sch" 50
F2 "FPGA_TCK_LOC" I R 4350 4650 50 
F3 "FPGA_TDI_LOC" I R 4350 4750 50 
F4 "FPGA_TMS_LOC" I R 4350 4850 50 
F5 "FPGA_TCK_REM" I R 4350 4950 50 
F6 "FPGA_TDI_REM" I R 4350 5050 50 
F7 "FPGA_TMS_REM" I R 4350 5150 50 
F8 "GBTX_TMS_REM_P" I L 2200 3800 50 
F9 "GBTX_TMS_REM_N" I L 2200 3900 50 
F10 "GBTX_TDI_REM_P" I L 2200 4000 50 
F11 "GBTX_TDI_REM_N" I L 2200 4100 50 
F12 "GBTX_TCK_REM_P" I L 2200 4200 50 
F13 "GBTX_TCK_REM_N" I L 2200 4300 50 
F14 "GBTX_TMS_LOC_P" I L 2200 4400 50 
F15 "GBTX_TMS_LOC_N" I L 2200 4500 50 
F16 "GBTX_TDI_LOC_P" I L 2200 4600 50 
F17 "GBTX_TDI_LOC_N" I L 2200 4700 50 
F18 "GBTX_RST_REM_P" I L 2200 4800 50 
F19 "GBTX_RST_REM_N" I L 2200 4900 50 
F20 "GBTX_RST_LOC_P" I L 2200 5000 50 
F21 "GBTX_RST_LOC_N" I L 2200 5100 50 
F22 "GBTX_TCK_LOC_P" I L 2200 5200 50 
F23 "GBTX_TCK_LOC_N" I L 2200 5300 50 
F24 "GBTX_KEY_A_P" I L 2200 5400 50 
F25 "GBTX_KEY_A_N" I L 2200 5500 50 
F26 "GBTX_KEY_B_P" I L 2200 5600 50 
F27 "GBTX_KEY_B_N" I L 2200 5700 50 
F28 "GBTX_RXDY" I L 2200 5800 50 
F29 "GBTX_RXDATAVALID" I L 2200 5900 50 
F30 "TESTCLOCKOUT" I L 2200 6000 50 
F31 "CB_OSC" I L 2200 6300 50 
F32 "GBTX_DCLK6_N" I L 2200 6200 50 
F33 "GBTX_DCLK6_P" I L 2200 6100 50 
$EndSheet
Text Notes 7650 800  0    129  ~ 0
Connector
Text Notes 6750 3800 0    129  ~ 0
Termination Resistors
Text Notes 5200 3100 0    129  ~ 0
Power Regulators
Text Notes 2200 3500 0    129  ~ 0
FPGA Banks
Text Notes 1200 1100 0    129  ~ 0
40 MHz Oscillator
Text GLabel 1350 1300 0    50   Input ~ 0
1V8
Wire Wire Line
	1350 1300 1500 1300
Connection ~ 1500 1300
$Comp
L gbtx:TFT660 X1
U 1 1 5E86D4D3
P 2250 1700
F 0 "X1" H 2594 1746 50  0000 L CNN
F 1 "ECS-3518/3525" H 1600 1400 50  0000 L CNN
F 2 "gbtx-testboard:CB3LV-31-40M0000" H 2700 1350 50  0001 C CNN
F 3 "http://cdn-reichelt.de/documents/datenblatt/B400/OSZI.pdf" H 2150 1700 50  0001 C CNN
	1    2250 1700
	1    0    0    -1  
$EndComp
Text Label 6750 4200 0    50   ~ 0
GBTX_DCLK6_P
Text Label 6750 4400 0    50   ~ 0
GBTX_DCLK6_N
$Comp
L Device:R_Small R29
U 1 1 5F4799A5
P 7600 4300
F 0 "R29" H 7659 4346 50  0000 L CNN
F 1 "100" H 7659 4255 50  0000 L CNN
F 2 "Resistor_SMD:R_0603_1608Metric_Pad1.05x0.95mm_HandSolder" H 7600 4300 50  0001 C CNN
F 3 "~" H 7600 4300 50  0001 C CNN
	1    7600 4300
	1    0    0    -1  
$EndComp
Text Label 8650 4200 2    50   ~ 0
PROASIC_DCLK6_P
Text Label 8650 4400 2    50   ~ 0
PROASIC_DCLK6_N
Wire Wire Line
	6750 4200 7600 4200
Wire Wire Line
	6750 4400 7600 4400
Wire Wire Line
	7600 4200 8650 4200
Connection ~ 7600 4200
Wire Wire Line
	7600 4400 8650 4400
Connection ~ 7600 4400
$EndSCHEMATC
