(module screw_term (layer F.Cu) (tedit 5E3E8C46)
  (fp_text reference J16 (at 0.635 2.286) (layer F.SilkS)
    (effects (font (size 1 1) (thickness 0.15)))
  )
  (fp_text value Screw_Terminal_01x02 (at 2.667 -2.159) (layer F.Fab)
    (effects (font (size 1 1) (thickness 0.15)))
  )
  (fp_line (start -1.27 -0.381) (end -1.27 1.27) (layer F.SilkS) (width 0.12))
  (fp_line (start -1.27 1.27) (end 6.35 1.27) (layer F.SilkS) (width 0.12))
  (fp_line (start 6.35 1.27) (end 6.35 -1.397) (layer F.SilkS) (width 0.12))
  (fp_line (start 6.35 -1.397) (end -0.254 -1.397) (layer F.SilkS) (width 0.12))
  (fp_line (start -1.27 -0.381) (end -0.254 -1.397) (layer F.SilkS) (width 0.12))
  (pad 1 thru_hole circle (at 0 0) (size 1.35 1.35) (drill 0.8) (layers *.Cu *.Mask))
  (pad 2 thru_hole circle (at 5 0) (size 1.35 1.35) (drill 0.8) (layers *.Cu *.Mask))
)
