Ref,Val,Package,Center X,Center Y,Rot,Side
C1,0.1u,C_0603_1608Metric_Pad1.05x0.95mm_HandSolder,119.38,-39.243,90,bottom
R1,10K,R_0603_1608Metric_Pad1.05x0.95mm_HandSolder,122.047,-39.243,90,bottom
R2,1K,R_0603_1608Metric_Pad1.05x0.95mm_HandSolder,130.556,-42.672,0,bottom
R3,1K,R_0603_1608Metric_Pad1.05x0.95mm_HandSolder,130.556,-45.466,0,bottom
R4,39,R_0603_1608Metric_Pad1.05x0.95mm_HandSolder,130.556,-48.26,180,bottom
R5,100,R_0603_1608Metric_Pad1.05x0.95mm_HandSolder,153.924,-41.8592,0,bottom
R6,100,R_0603_1608Metric_Pad1.05x0.95mm_HandSolder,149.352,-41.8592,0,bottom
R7,100,R_0603_1608Metric_Pad1.05x0.95mm_HandSolder,153.924,-38.8112,0,bottom
R8,100,R_0603_1608Metric_Pad1.05x0.95mm_HandSolder,149.352,-38.7858,180,bottom
R9,100,R_0603_1608Metric_Pad1.05x0.95mm_HandSolder,141.351,-52.451,270,bottom
R10,100,R_0603_1608Metric_Pad1.05x0.95mm_HandSolder,158.4706,-38.7858,180,bottom
R11,100,R_0603_1608Metric_Pad1.05x0.95mm_HandSolder,158.5976,-41.91,180,bottom
R12,100,R_0603_1608Metric_Pad1.05x0.95mm_HandSolder,164.719,-44.7802,90,bottom
R13,100,R_0603_1608Metric_Pad1.05x0.95mm_HandSolder,162.306,-48.641,90,bottom
R14,100,R_0603_1608Metric_Pad1.05x0.95mm_HandSolder,164.973,-52.1462,90,bottom
R29,100,R_0603_1608Metric_Pad1.05x0.95mm_HandSolder,153.67,-60.833,180,bottom
R32,LVK25R002FE,LVK25R002FE,162.433,-69.469,0,bottom
R33,LVK25R002FE,LVK25R002FE,172.847,-78.867,0,bottom
R34,LVK25R002FE,LVK25R002FE,155.829,-78.232,0,bottom
R35,LVK25R002FE,LVK25R002FE,181.61,-70.739,0,bottom
R36,R_Small,R_0603_1608Metric_Pad1.05x0.95mm_HandSolder,152.527,-67.691,270,bottom
R37,R_Small,R_0603_1608Metric_Pad1.05x0.95mm_HandSolder,162.179,-74.803,270,bottom
R38,R_Small,R_0603_1608Metric_Pad1.05x0.95mm_HandSolder,144.78,-73.914,270,bottom
R39,R_Small,R_0603_1608Metric_Pad1.05x0.95mm_HandSolder,180.848,-75.057,0,bottom
U5,INA333AIDRG,INA333AIDRG,155.575,-67.691,0,bottom
U6,INA333AIDRG,INA333AIDRG,165.216,-74.844,0,bottom
U7,INA333AIDRG,INA333AIDRG,147.828,-73.914,0,bottom
U8,INA333AIDRG,INA333AIDRG,180.848,-72.009,90,bottom
X1,ECS-3518/3525,CB3LV-31-40M0000,126.492,-38.862,0,bottom
C2,1u,C_0603_1608Metric_Pad1.05x0.95mm_HandSolder,182.626,-50.546,180,top
C3,1u,C_0603_1608Metric_Pad1.05x0.95mm_HandSolder,167.259,-39.878,180,top
C4,4u7,C_0603_1608Metric_Pad1.05x0.95mm_HandSolder,177.0634,-55.372,180,top
C5,4u7,C_0603_1608Metric_Pad1.05x0.95mm_HandSolder,161.671,-44.704,180,top
C6,1u,C_0603_1608Metric_Pad1.05x0.95mm_HandSolder,177.8,-39.878,180,top
C7,1u,C_0603_1608Metric_Pad1.05x0.95mm_HandSolder,171.704,-50.546,180,top
C8,4u7,C_0603_1608Metric_Pad1.05x0.95mm_HandSolder,172.466,-44.704,180,top
C9,4u7,C_0603_1608Metric_Pad1.05x0.95mm_HandSolder,166.37,-55.372,180,top
C10,1u,C_0603_1608Metric_Pad1.05x0.95mm_HandSolder,146.558,-41.148,90,top
C11,.01u,C_0603_1608Metric_Pad1.05x0.95mm_HandSolder,160.8328,-61.3664,0,top
C12,10n,C_0603_1608Metric_Pad1.05x0.95mm_HandSolder,143.51,-41.148,90,top
C13,.33u,C_0603_1608Metric_Pad1.05x0.95mm_HandSolder,160.8328,-58.3184,0,top
C14,1u,C_0603_1608Metric_Pad1.05x0.95mm_HandSolder,160.9344,-52.2224,0,top
C15,10n,C_0603_1608Metric_Pad1.05x0.95mm_HandSolder,160.9344,-55.2704,0,top
C16,1u,C_0603_1608Metric_Pad1.05x0.95mm_HandSolder,138.176,-56.8452,180,top
C17,1u,C_0603_1608Metric_Pad1.05x0.95mm_HandSolder,154.3812,-41.0972,90,top
C18,10n,C_0603_1608Metric_Pad1.05x0.95mm_HandSolder,157.4292,-41.0972,90,top
C19,10n,C_0603_1608Metric_Pad1.05x0.95mm_HandSolder,138.176,-53.594,180,top
D1,LED,LED_0805_2012Metric_Pad1.15x1.40mm_HandSolder,162.4838,-71.247,90,top
D2,LED,LED_0805_2012Metric_Pad1.15x1.40mm_HandSolder,166.5478,-71.247,90,top
D3,LED,LED_0805_2012Metric_Pad1.15x1.40mm_HandSolder,170.6118,-71.247,90,top
D4,LED,LED_0805_2012Metric_Pad1.15x1.40mm_HandSolder,174.6758,-71.247,90,top
J2,87832-5623,878325623,121.9708,-45.3644,270,top
J3,USB_B_Micro,USB_Micro-B_Molex-105017-0001,184.912,-35.306,90,top
R15,246k,R_0603_1608Metric_Pad1.05x0.95mm_HandSolder,177.0634,-52.578,180,top
R16,66k5,R_0603_1608Metric_Pad1.05x0.95mm_HandSolder,177.038,-49.53,180,top
R17,113k,R_0603_1608Metric_Pad1.05x0.95mm_HandSolder,161.671,-41.91,180,top
R18,66k5,R_0603_1608Metric_Pad1.05x0.95mm_HandSolder,161.671,-38.862,180,top
R19,182k,R_0603_1608Metric_Pad1.05x0.95mm_HandSolder,172.466,-41.91,180,top
R20,66k5,R_0603_1608Metric_Pad1.05x0.95mm_HandSolder,172.466,-38.862,180,top
R21,83k5,R_0603_1608Metric_Pad1.05x0.95mm_HandSolder,166.37,-52.578,180,top
R22,66k5,R_0603_1608Metric_Pad1.05x0.95mm_HandSolder,166.37,-49.53,180,top
R23,1k5,R_0603_1608Metric_Pad1.05x0.95mm_HandSolder,162.4838,-65.786,270,top
R24,1k5,R_0603_1608Metric_Pad1.05x0.95mm_HandSolder,166.5478,-65.786,270,top
R25,1k5,R_0603_1608Metric_Pad1.05x0.95mm_HandSolder,170.6118,-65.786,270,top
R26,1k5,R_0603_1608Metric_Pad1.05x0.95mm_HandSolder,174.6758,-65.786,270,top
R27,4k7,R_0603_1608Metric_Pad1.05x0.95mm_HandSolder,131.064,-46.736,0,top
R28,4k7,R_0603_1608Metric_Pad1.05x0.95mm_HandSolder,131.064,-55.118,0,top
R30,4k7,R_0603_1608Metric_Pad1.05x0.95mm_HandSolder,131.064,-52.324,0,top
R31,4k7,R_0603_1608Metric_Pad1.05x0.95mm_HandSolder,131.064,-49.53,0,top
T1,TPS76201,TPS76201,182.118,-54.483,90,top
T2,TPS76201,TPS76201,166.878,-43.815,90,top
T3,TPS76201,TPS76201,177.292,-43.815,90,top
T4,TPS76201,TPS76201,171.323,-54.483,90,top
U2,A3P250-FGG144I,A39250-FGG144I,149.7005,-51.1137,0,top
