G04 #@! TF.GenerationSoftware,KiCad,Pcbnew,5.1.5-52549c5~84~ubuntu18.04.1*
G04 #@! TF.CreationDate,2020-09-01T09:43:00+02:00*
G04 #@! TF.ProjectId,proasic-mezzanine-card,70726f61-7369-4632-9d6d-657a7a616e69,rev?*
G04 #@! TF.SameCoordinates,Original*
G04 #@! TF.FileFunction,Profile,NP*
%FSLAX46Y46*%
G04 Gerber Fmt 4.6, Leading zero omitted, Abs format (unit mm)*
G04 Created by KiCad (PCBNEW 5.1.5-52549c5~84~ubuntu18.04.1) date 2020-09-01 09:43:00*
%MOMM*%
%LPD*%
G04 APERTURE LIST*
%ADD10C,0.120000*%
G04 APERTURE END LIST*
D10*
X113792000Y-78994000D02*
X113792000Y-24994000D01*
X187792000Y-78994000D02*
X113792000Y-78994000D01*
X187792000Y-24994000D02*
X187792000Y-78994000D01*
X113792000Y-24994000D02*
X187792000Y-24994000D01*
M02*
